%YAML 1.1
%TAG !u! tag:unity3d.com,2011:
--- !u!74 &7400000
AnimationClip:
  m_ObjectHideFlags: 0
  m_CorrespondingSourceObject: {fileID: 0}
  m_PrefabInstance: {fileID: 0}
  m_PrefabAsset: {fileID: 0}
  m_Name: DashLeft
  serializedVersion: 6
  m_Legacy: 0
  m_Compressed: 0
  m_UseHighQualityCurve: 1
  m_RotationCurves:
  - curve:
      serializedVersion: 2
      m_Curve:
      - serializedVersion: 3
        time: 0
        value: {x: -0.0000002761675, y: 0.00000029802334, z: 0.00000006717954, w: 1}
        inSlope: {x: 0, y: 0, z: 0, w: 0}
        outSlope: {x: 0, y: 0, z: 0, w: 0}
        tangentMode: 0
        weightedMode: 0
        inWeight: {x: 0.33333334, y: 0.33333334, z: 0.33333334, w: 0.33333334}
        outWeight: {x: 0.33333334, y: 0.33333334, z: 0.33333334, w: 0.33333334}
      - serializedVersion: 3
        time: 1
        value: {x: -0.0000002761675, y: 0.00000029802334, z: 0.00000006717954, w: 1}
        inSlope: {x: 0, y: 0, z: 0, w: 0}
        outSlope: {x: 0, y: 0, z: 0, w: 0}
        tangentMode: 0
        weightedMode: 0
        inWeight: {x: 0.33333334, y: 0.33333334, z: 0.33333334, w: 0.33333334}
        outWeight: {x: 0.33333334, y: 0.33333334, z: 0.33333334, w: 0.33333334}
      m_PreInfinity: 2
      m_PostInfinity: 2
      m_RotationOrder: 4
    path: KayKit Animated Character
  - curve:
      serializedVersion: 2
      m_Curve:
      - serializedVersion: 3
        time: 0
        value: {x: -0.00000008146034, y: 0, z: -0, w: 1}
        inSlope: {x: 6.164668e-10, y: -0.000000054888538, z: 0.67380685, w: -0.0075674052}
        outSlope: {x: 6.164668e-10, y: -0.000000054888538, z: 0.67380685, w: -0.0075674052}
        tangentMode: 0
        weightedMode: 0
        inWeight: {x: 0.33333334, y: 0.33333334, z: 0.33333334, w: 0.33333334}
        outWeight: {x: 0.33333334, y: 0.33333334, z: 0.33333334, w: 0.33333334}
      - serializedVersion: 3
        time: 0.033333335
        value: {x: -0.000000081439794, y: -0.000000001829618, z: 0.02246023, w: 0.99974775}
        inSlope: {x: 0.0000000025185185, y: -0.00000007841218, z: 0.9625809, w: -0.030916927}
        outSlope: {x: 0.0000000025185185, y: -0.00000007841218, z: 0.9625809, w: -0.030916927}
        tangentMode: 0
        weightedMode: 0
        inWeight: {x: 0.33333334, y: 0.33333334, z: 0.33333334, w: 0.33333334}
        outWeight: {x: 0.33333334, y: 0.33333334, z: 0.33333334, w: 0.33333334}
      - serializedVersion: 3
        time: 0.06666667
        value: {x: -0.00000008129244, y: -0.000000005227479, z: 0.06417207, w: 0.9979389}
        inSlope: {x: 0.0000000042790296, y: -0.00000007833582, z: 0.9616437, w: -0.052529268}
        outSlope: {x: 0.0000000042790296, y: -0.00000007833582, z: 0.9616437, w: -0.052529268}
        tangentMode: 0
        weightedMode: 0
        inWeight: {x: 0.33333334, y: 0.33333334, z: 0.33333334, w: 0.33333334}
        outWeight: {x: 0.33333334, y: 0.33333334, z: 0.33333334, w: 0.33333334}
      - serializedVersion: 3
        time: 0.16666667
        value: {x: -0.000000081154525, y: -0.000000007052007, z: 0.086569816, w: 0.9962458}
        inSlope: {x: 0, y: 0, z: 0, w: 0}
        outSlope: {x: 0, y: 0, z: 0, w: 0}
        tangentMode: 0
        weightedMode: 0
        inWeight: {x: 0.33333334, y: 0.33333334, z: 0.33333334, w: 0.33333334}
        outWeight: {x: 0.33333334, y: 0.33333334, z: 0.33333334, w: 0.33333334}
      - serializedVersion: 3
        time: 0.5666667
        value: {x: -0.00000008118348, y: -0.0000000067104966, z: 0.08237746, w: 0.9966012}
        inSlope: {x: -7.874236e-10, y: 0.000000009625143, z: -0.11815748, w: 0.009665789}
        outSlope: {x: -7.874236e-10, y: 0.000000009625143, z: -0.11815748, w: 0.009665789}
        tangentMode: 0
        weightedMode: 0
        inWeight: {x: 0.33333334, y: 0.33333334, z: 0.33333334, w: 0.33333334}
        outWeight: {x: 0.33333334, y: 0.33333334, z: 0.33333334, w: 0.33333334}
      - serializedVersion: 3
        time: 1
        value: {x: -0.00000008146034, y: 0, z: -0, w: 1}
        inSlope: {x: -1.4921412e-12, y: 0.0000000026955749, z: -0.03309064, w: 0.00001788141}
        outSlope: {x: -1.4921412e-12, y: 0.0000000026955749, z: -0.03309064, w: 0.00001788141}
        tangentMode: 0
        weightedMode: 0
        inWeight: {x: 0.33333334, y: 0.33333334, z: 0.33333334, w: 0.33333334}
        outWeight: {x: 0.33333334, y: 0.33333334, z: 0.33333334, w: 0.33333334}
      m_PreInfinity: 2
      m_PostInfinity: 2
      m_RotationOrder: 4
    path: KayKit Animated Character/Body
  - curve:
      serializedVersion: 2
      m_Curve:
      - serializedVersion: 3
        time: 0
        value: {x: 7.1054274e-15, y: 0, z: -0, w: 1}
        inSlope: {x: -7.648707e-17, y: -5.710666e-15, z: -0.8037048, w: -0.010766386}
        outSlope: {x: -7.648707e-17, y: -5.710666e-15, z: -0.8037048, w: -0.010766386}
        tangentMode: 0
        weightedMode: 0
        inWeight: {x: 0.33333334, y: 0.33333334, z: 0.33333334, w: 0.33333334}
        outWeight: {x: 0.33333334, y: 0.33333334, z: 0.33333334, w: 0.33333334}
      - serializedVersion: 3
        time: 0.033333335
        value: {x: 7.102878e-15, y: -1.9035554e-16, z: -0.02679016, w: 0.9996411}
        inSlope: {x: -3.1268219e-16, y: -8.158094e-15, z: -1.1481495, w: -0.044006106}
        outSlope: {x: -3.1268219e-16, y: -8.158094e-15, z: -1.1481495, w: -0.044006106}
        tangentMode: 0
        weightedMode: 0
        inWeight: {x: 0.33333334, y: 0.33333334, z: 0.33333334, w: 0.33333334}
        outWeight: {x: 0.33333334, y: 0.33333334, z: 0.33333334, w: 0.33333334}
      - serializedVersion: 3
        time: 0.06666667
        value: {x: 7.084582e-15, y: -5.438729e-16, z: -0.0765433, w: 0.99706626}
        inSlope: {x: -5.3112767e-16, y: -8.14679e-15, z: -1.1465588, w: -0.074749574}
        outSlope: {x: -5.3112767e-16, y: -8.14679e-15, z: -1.1465588, w: -0.074749574}
        tangentMode: 0
        weightedMode: 0
        inWeight: {x: 0.33333334, y: 0.33333334, z: 0.33333334, w: 0.33333334}
        outWeight: {x: 0.33333334, y: 0.33333334, z: 0.33333334, w: 0.33333334}
      - serializedVersion: 3
        time: 0.16666667
        value: {x: 7.0674693e-15, y: -7.3347495e-16, z: -0.10322742, w: 0.9946578}
        inSlope: {x: 0, y: 0, z: 0, w: 0}
        outSlope: {x: 0, y: 0, z: 0, w: 0}
        tangentMode: 0
        weightedMode: 0
        inWeight: {x: 0.33333334, y: 0.33333334, z: 0.33333334, w: 0.33333334}
        outWeight: {x: 0.33333334, y: 0.33333334, z: 0.33333334, w: 0.33333334}
      - serializedVersion: 3
        time: 0.6
        value: {x: 7.0674693e-15, y: -7.334749e-16, z: -0.103227414, w: 0.9946578}
        inSlope: {x: 2.2120247e-17, y: 2.153643e-16, z: 0.03030983, w: 0.003114042}
        outSlope: {x: 2.2120247e-17, y: 2.153643e-16, z: 0.03030983, w: 0.003114042}
        tangentMode: 0
        weightedMode: 0
        inWeight: {x: 0.33333334, y: 0.33333334, z: 0.33333334, w: 0.33333334}
        outWeight: {x: 0.33333334, y: 0.33333334, z: 0.33333334, w: 0.33333334}
      - serializedVersion: 3
        time: 0.9666667
        value: {x: 7.1054134e-15, y: -1.4433231e-17, z: -0.0020312967, w: 0.999998}
        inSlope: {x: 3.1192017e-18, y: 8.1527096e-16, z: 0.11473919, w: 0.00043898862}
        outSlope: {x: 3.1192017e-18, y: 8.1527096e-16, z: 0.11473919, w: 0.00043898862}
        tangentMode: 0
        weightedMode: 0
        inWeight: {x: 0.33333334, y: 0.33333334, z: 0.33333334, w: 0.33333334}
        outWeight: {x: 0.33333334, y: 0.33333334, z: 0.33333334, w: 0.33333334}
      - serializedVersion: 3
        time: 1
        value: {x: 7.1054274e-15, y: 0, z: -0, w: 1}
        inSlope: {x: 4.192817e-19, y: 4.3299734e-16, z: 0.060938958, w: 0.000060796796}
        outSlope: {x: 4.192817e-19, y: 4.3299734e-16, z: 0.060938958, w: 0.000060796796}
        tangentMode: 0
        weightedMode: 0
        inWeight: {x: 0.33333334, y: 0.33333334, z: 0.33333334, w: 0.33333334}
        outWeight: {x: 0.33333334, y: 0.33333334, z: 0.33333334, w: 0.33333334}
      m_PreInfinity: 2
      m_PostInfinity: 2
      m_RotationOrder: 4
    path: KayKit Animated Character/Body/Head
  - curve:
      serializedVersion: 2
      m_Curve:
      - serializedVersion: 3
        time: 0
        value: {x: 0.68586326, y: -0.17202254, z: 0.68586314, w: 0.17202257}
        inSlope: {x: -0.3490108, y: 0.38776156, z: 0.001605749, w: 1.5220503}
        outSlope: {x: -0.3490108, y: 0.38776156, z: 0.001605749, w: 1.5220503}
        tangentMode: 0
        weightedMode: 0
        inWeight: {x: 0.33333334, y: 0.33333334, z: 0.33333334, w: 0.33333334}
        outWeight: {x: 0.33333334, y: 0.33333334, z: 0.33333334, w: 0.33333334}
      - serializedVersion: 3
        time: 0.033333335
        value: {x: 0.67422956, y: -0.15909715, z: 0.68591666, w: 0.22275758}
        inSlope: {x: -0.5777263, y: 0.5737949, z: -0.07684796, w: 2.1545126}
        outSlope: {x: -0.5777263, y: 0.5737949, z: -0.07684796, w: 2.1545126}
        tangentMode: 0
        weightedMode: 0
        inWeight: {x: 0.33333334, y: 0.33333334, z: 0.33333334, w: 0.33333334}
        outWeight: {x: 0.33333334, y: 0.33333334, z: 0.33333334, w: 0.33333334}
      - serializedVersion: 3
        time: 0.06666667
        value: {x: 0.64734817, y: -0.13376954, z: 0.68073994, w: 0.31565675}
        inSlope: {x: -0.6594988, y: 0.59192103, z: -0.16141084, w: 2.1211967}
        outSlope: {x: -0.6594988, y: 0.59192103, z: -0.16141084, w: 2.1211967}
        tangentMode: 0
        weightedMode: 0
        inWeight: {x: 0.33333334, y: 0.33333334, z: 0.33333334, w: 0.33333334}
        outWeight: {x: 0.33333334, y: 0.33333334, z: 0.33333334, w: 0.33333334}
      - serializedVersion: 3
        time: 0.10000001
        value: {x: 0.630263, y: -0.119635746, z: 0.67515594, w: 0.3641707}
        inSlope: {x: -0.2561554, y: 0.2126502, z: -0.083388075, w: 0.7270198}
        outSlope: {x: -0.2561554, y: 0.2126502, z: -0.083388075, w: 0.7270198}
        tangentMode: 0
        weightedMode: 0
        inWeight: {x: 0.33333334, y: 0.33333334, z: 0.33333334, w: 0.33333334}
        outWeight: {x: 0.33333334, y: 0.33333334, z: 0.33333334, w: 0.33333334}
      - serializedVersion: 3
        time: 0.13333334
        value: {x: 0.63027114, y: -0.11959286, z: 0.67518073, w: 0.36412475}
        inSlope: {x: 0.00024408105, y: 0.0012865664, z: 0.000743866, w: -0.0013782085}
        outSlope: {x: 0.00024408105, y: 0.0012865664, z: 0.000743866, w: -0.0013782085}
        tangentMode: 0
        weightedMode: 0
        inWeight: {x: 0.33333334, y: 0.33333334, z: 0.33333334, w: 0.33333334}
        outWeight: {x: 0.33333334, y: 0.33333334, z: 0.33333334, w: 0.33333334}
      - serializedVersion: 3
        time: 0.6
        value: {x: 0.6303848, y: -0.118992314, z: 0.67552733, w: 0.3634813}
        inSlope: {x: 0.018620774, y: -0.025219448, z: 0.0021520245, w: -0.04482057}
        outSlope: {x: 0.018620774, y: -0.025219448, z: 0.0021520245, w: -0.04482057}
        tangentMode: 0
        weightedMode: 0
        inWeight: {x: 0.33333334, y: 0.33333334, z: 0.33333334, w: 0.33333334}
        outWeight: {x: 0.33333334, y: 0.33333334, z: 0.33333334, w: 0.33333334}
      - serializedVersion: 3
        time: 0.86666673
        value: {x: 0.6742296, y: -0.15909706, z: 0.68591666, w: 0.22275738}
        inSlope: {x: 0.16167909, y: -0.16818635, z: 0.012611742, w: -0.643806}
        outSlope: {x: 0.16167909, y: -0.16818635, z: 0.012611742, w: -0.643806}
        tangentMode: 0
        weightedMode: 0
        inWeight: {x: 0.33333334, y: 0.33333334, z: 0.33333334, w: 0.33333334}
        outWeight: {x: 0.33333334, y: 0.33333334, z: 0.33333334, w: 0.33333334}
      - serializedVersion: 3
        time: 1
        value: {x: 0.68586326, y: -0.17202254, z: 0.68586314, w: 0.17202257}
        inSlope: {x: 0.024318717, y: -0.028821705, z: -0.0021958372, w: -0.11557516}
        outSlope: {x: 0.024318717, y: -0.028821705, z: -0.0021958372, w: -0.11557516}
        tangentMode: 0
        weightedMode: 0
        inWeight: {x: 0.33333334, y: 0.33333334, z: 0.33333334, w: 0.33333334}
        outWeight: {x: 0.33333334, y: 0.33333334, z: 0.33333334, w: 0.33333334}
      m_PreInfinity: 2
      m_PostInfinity: 2
      m_RotationOrder: 4
    path: KayKit Animated Character/Body/armLeft
  - curve:
      serializedVersion: 2
      m_Curve:
      - serializedVersion: 3
        time: 0
        value: {x: 0.60661685, y: 0.6066168, z: -0.36334017, w: 0.36334002}
        inSlope: {x: 0.6489175, y: -0.73454255, z: 0.9621682, w: 0.9749892}
        outSlope: {x: 0.6489175, y: -0.73454255, z: 0.9621682, w: 0.9749892}
        tangentMode: 0
        weightedMode: 0
        inWeight: {x: 0.33333334, y: 0.33333334, z: 0.33333334, w: 0.33333334}
        outWeight: {x: 0.33333334, y: 0.33333334, z: 0.33333334, w: 0.33333334}
      - serializedVersion: 3
        time: 0.033333335
        value: {x: 0.62824744, y: 0.58213204, z: -0.3312679, w: 0.39583966}
        inSlope: {x: 0.8502531, y: -1.1261084, z: 1.420505, w: 1.3468618}
        outSlope: {x: 0.8502531, y: -1.1261084, z: 1.420505, w: 1.3468618}
        tangentMode: 0
        weightedMode: 0
        inWeight: {x: 0.33333334, y: 0.33333334, z: 0.33333334, w: 0.33333334}
        outWeight: {x: 0.33333334, y: 0.33333334, z: 0.33333334, w: 0.33333334}
      - serializedVersion: 3
        time: 0.06666667
        value: {x: 0.6633004, y: 0.5315429, z: -0.26863983, w: 0.4531308}
        inSlope: {x: 0.7626414, y: -1.2016537, z: 1.461199, w: 1.2892729}
        outSlope: {x: 0.7626414, y: -1.2016537, z: 1.461199, w: 1.2892729}
        tangentMode: 0
        weightedMode: 0
        inWeight: {x: 0.33333334, y: 0.33333334, z: 0.33333334, w: 0.33333334}
        outWeight: {x: 0.33333334, y: 0.33333334, z: 0.33333334, w: 0.33333334}
      - serializedVersion: 3
        time: 0.10000001
        value: {x: 0.6790902, y: 0.5020218, z: -0.23385462, w: 0.4817912}
        inSlope: {x: 0.23684706, y: -0.44281656, z: 0.5217781, w: 0.42990574}
        outSlope: {x: 0.23684706, y: -0.44281656, z: 0.5217781, w: 0.42990574}
        tangentMode: 0
        weightedMode: 0
        inWeight: {x: 0.33333334, y: 0.33333334, z: 0.33333334, w: 0.33333334}
        outWeight: {x: 0.33333334, y: 0.33333334, z: 0.33333334, w: 0.33333334}
      - serializedVersion: 3
        time: 0.13333334
        value: {x: 0.6790902, y: 0.5020218, z: -0.23385462, w: 0.4817912}
        inSlope: {x: 0, y: 0, z: 0, w: 0}
        outSlope: {x: 0, y: 0, z: 0, w: 0}
        tangentMode: 0
        weightedMode: 0
        inWeight: {x: 0.33333334, y: 0.33333334, z: 0.33333334, w: 0.33333334}
        outWeight: {x: 0.33333334, y: 0.33333334, z: 0.33333334, w: 0.33333334}
      - serializedVersion: 3
        time: 0.43333337
        value: {x: 0.6790902, y: 0.5020218, z: -0.23385462, w: 0.4817912}
        inSlope: {x: 0, y: 0, z: 0, w: 0}
        outSlope: {x: 0, y: 0, z: 0, w: 0}
        tangentMode: 0
        weightedMode: 0
        inWeight: {x: 0.33333334, y: 0.33333334, z: 0.33333334, w: 0.33333334}
        outWeight: {x: 0.33333334, y: 0.33333334, z: 0.33333334, w: 0.33333334}
      - serializedVersion: 3
        time: 0.5
        value: {x: 0.66906065, y: 0.5146606, z: -0.24308527, w: 0.4779036}
        inSlope: {x: -0.5589838, y: 0.6702999, z: -0.49475342, w: -0.22380523}
        outSlope: {x: -0.5589838, y: 0.6702999, z: -0.49475342, w: -0.22380523}
        tangentMode: 0
        weightedMode: 0
        inWeight: {x: 0.33333334, y: 0.33333334, z: 0.33333334, w: 0.33333334}
        outWeight: {x: 0.33333334, y: 0.33333334, z: 0.33333334, w: 0.33333334}
      - serializedVersion: 3
        time: 0.5666667
        value: {x: 0.60157484, y: 0.5888345, z: -0.29888576, w: 0.44949847}
        inSlope: {x: -1.3125794, y: 1.2753065, z: -0.9892274, w: -0.5880101}
        outSlope: {x: -1.3125794, y: 1.2753065, z: -0.9892274, w: -0.5880101}
        tangentMode: 0
        weightedMode: 0
        inWeight: {x: 0.33333334, y: 0.33333334, z: 0.33333334, w: 0.33333334}
        outWeight: {x: 0.33333334, y: 0.33333334, z: 0.33333334, w: 0.33333334}
      - serializedVersion: 3
        time: 0.6333334
        value: {x: 0.508646, y: 0.66757536, z: -0.36271372, w: 0.40504462}
        inSlope: {x: -1.1944921, y: 0.89011323, z: -0.7716974, w: -0.61603945}
        outSlope: {x: -1.1944921, y: 0.89011323, z: -0.7716974, w: -0.61603945}
        tangentMode: 0
        weightedMode: 0
        inWeight: {x: 0.33333334, y: 0.33333334, z: 0.33333334, w: 0.33333334}
        outWeight: {x: 0.33333334, y: 0.33333334, z: 0.33333334, w: 0.33333334}
      - serializedVersion: 3
        time: 0.70000005
        value: {x: 0.4625853, y: 0.698684, z: -0.3940593, w: 0.3775883}
        inSlope: {x: -0.08034577, y: 0.046816006, z: -0.17199746, w: -0.16152298}
        outSlope: {x: -0.08034577, y: 0.046816006, z: -0.17199746, w: -0.16152298}
        tangentMode: 0
        weightedMode: 0
        inWeight: {x: 0.33333334, y: 0.33333334, z: 0.33333334, w: 0.33333334}
        outWeight: {x: 0.33333334, y: 0.33333334, z: 0.33333334, w: 0.33333334}
      - serializedVersion: 3
        time: 0.8333334
        value: {x: 0.527296, y: 0.6611236, z: -0.3857337, w: 0.36889574}
        inSlope: {x: 0.69673157, y: -0.4337445, z: 0.16078457, w: -0.05164417}
        outSlope: {x: 0.69673157, y: -0.4337445, z: 0.16078457, w: -0.05164417}
        tangentMode: 0
        weightedMode: 0
        inWeight: {x: 0.33333334, y: 0.33333334, z: 0.33333334, w: 0.33333334}
        outWeight: {x: 0.33333334, y: 0.33333334, z: 0.33333334, w: 0.33333334}
      - serializedVersion: 3
        time: 0.9666667
        value: {x: 0.60217094, y: 0.6098981, z: -0.36484542, w: 0.36373377}
        inSlope: {x: 0.2476924, y: -0.18034028, z: 0.08156918, w: -0.021616837}
        outSlope: {x: 0.2476924, y: -0.18034028, z: 0.08156918, w: -0.021616837}
        tangentMode: 0
        weightedMode: 0
        inWeight: {x: 0.33333334, y: 0.33333334, z: 0.33333334, w: 0.33333334}
        outWeight: {x: 0.33333334, y: 0.33333334, z: 0.33333334, w: 0.33333334}
      - serializedVersion: 3
        time: 1
        value: {x: 0.60661685, y: 0.6066168, z: -0.36334017, w: 0.36334002}
        inSlope: {x: 0.13337745, y: -0.098438956, z: 0.045157716, w: -0.01181246}
        outSlope: {x: 0.13337745, y: -0.098438956, z: 0.045157716, w: -0.01181246}
        tangentMode: 0
        weightedMode: 0
        inWeight: {x: 0.33333334, y: 0.33333334, z: 0.33333334, w: 0.33333334}
        outWeight: {x: 0.33333334, y: 0.33333334, z: 0.33333334, w: 0.33333334}
      m_PreInfinity: 2
      m_PostInfinity: 2
      m_RotationOrder: 4
    path: KayKit Animated Character/Body/armLeft/handSlotLeft
  - curve:
      serializedVersion: 2
      m_Curve:
      - serializedVersion: 3
        time: 0
        value: {x: 0.6858632, y: 0.1720227, z: 0.685863, w: -0.17202275}
        inSlope: {x: -0.16420124, y: 0.6153725, z: -0.16420124, w: -0.6153725}
        outSlope: {x: -0.16420124, y: 0.6153725, z: -0.16420124, w: -0.6153725}
        tangentMode: 0
        weightedMode: 0
        inWeight: {x: 0.33333334, y: 0.33333334, z: 0.33333334, w: 0.33333334}
        outWeight: {x: 0.33333334, y: 0.33333334, z: 0.33333334, w: 0.33333334}
      - serializedVersion: 3
        time: 0.033333335
        value: {x: 0.6803898, y: 0.19253512, z: 0.68038964, w: -0.19253516}
        inSlope: {x: -0.25923637, y: 0.8729148, z: -0.25923637, w: -0.872915}
        outSlope: {x: -0.25923637, y: 0.8729148, z: -0.25923637, w: -0.872915}
        tangentMode: 0
        weightedMode: 0
        inWeight: {x: 0.33333334, y: 0.33333334, z: 0.33333334, w: 0.33333334}
        outWeight: {x: 0.33333334, y: 0.33333334, z: 0.33333334, w: 0.33333334}
      - serializedVersion: 3
        time: 0.06666667
        value: {x: 0.6685808, y: 0.23021702, z: 0.6685806, w: -0.23021708}
        inSlope: {x: -0.28532353, y: 0.8647363, z: -0.28532353, w: -0.86473656}
        outSlope: {x: -0.28532353, y: 0.8647363, z: -0.28532353, w: -0.86473656}
        tangentMode: 0
        weightedMode: 0
        inWeight: {x: 0.33333334, y: 0.33333334, z: 0.33333334, w: 0.33333334}
        outWeight: {x: 0.33333334, y: 0.33333334, z: 0.33333334, w: 0.33333334}
      - serializedVersion: 3
        time: 0.16666667
        value: {x: 0.6614394, y: 0.24999611, z: 0.66143924, w: -0.24999617}
        inSlope: {x: 0.0010666249, y: -0.002823248, z: 0.0010666249, w: 0.0028230245}
        outSlope: {x: 0.0010666249, y: -0.002823248, z: 0.0010666249, w: 0.0028230245}
        tangentMode: 0
        weightedMode: 0
        inWeight: {x: 0.33333334, y: 0.33333334, z: 0.33333334, w: 0.33333334}
        outWeight: {x: 0.33333334, y: 0.33333334, z: 0.33333334, w: 0.33333334}
      - serializedVersion: 3
        time: 0.6
        value: {x: 0.6619006, y: 0.24877258, z: 0.6619004, w: -0.24877264}
        inSlope: {x: 0.0010612607, y: -0.0028239193, z: 0.0010612607, w: 0.0028239193}
        outSlope: {x: 0.0010612607, y: -0.0028239193, z: 0.0010612607, w: 0.0028239193}
        tangentMode: 0
        weightedMode: 0
        inWeight: {x: 0.33333334, y: 0.33333334, z: 0.33333334, w: 0.33333334}
        outWeight: {x: 0.33333334, y: 0.33333334, z: 0.33333334, w: 0.33333334}
      - serializedVersion: 3
        time: 0.9333334
        value: {x: 0.6843638, y: 0.1778943, z: 0.6843636, w: -0.17789434}
        inSlope: {x: 0.042449526, y: -0.16223407, z: 0.042449526, w: 0.16223407}
        outSlope: {x: 0.042449526, y: -0.16223407, z: 0.042449526, w: 0.16223407}
        tangentMode: 0
        weightedMode: 0
        inWeight: {x: 0.33333334, y: 0.33333334, z: 0.33333334, w: 0.33333334}
        outWeight: {x: 0.33333334, y: 0.33333334, z: 0.33333334, w: 0.33333334}
      - serializedVersion: 3
        time: 1
        value: {x: 0.6858632, y: 0.1720227, z: 0.685863, w: -0.17202275}
        inSlope: {x: 0.011798155, y: -0.046810403, z: 0.011798155, w: 0.046810403}
        outSlope: {x: 0.011798155, y: -0.046810403, z: 0.011798155, w: 0.046810403}
        tangentMode: 0
        weightedMode: 0
        inWeight: {x: 0.33333334, y: 0.33333334, z: 0.33333334, w: 0.33333334}
        outWeight: {x: 0.33333334, y: 0.33333334, z: 0.33333334, w: 0.33333334}
      m_PreInfinity: 2
      m_PostInfinity: 2
      m_RotationOrder: 4
    path: KayKit Animated Character/Body/armRight
  - curve:
      serializedVersion: 2
      m_Curve:
      - serializedVersion: 3
        time: 0
        value: {x: 0.36333996, y: 0.3633402, z: -0.6066169, w: 0.6066169}
        inSlope: {x: -0.18019168, y: 0.14073282, z: 1.2985806, w: 1.2326949}
        outSlope: {x: -0.18019168, y: 0.14073282, z: 1.2985806, w: 1.2326949}
        tangentMode: 0
        weightedMode: 0
        inWeight: {x: 0.33333334, y: 0.33333334, z: 0.33333334, w: 0.33333334}
        outWeight: {x: 0.33333334, y: 0.33333334, z: 0.33333334, w: 0.33333334}
      - serializedVersion: 3
        time: 0.033333335
        value: {x: 0.35733357, y: 0.3680313, z: -0.5633309, w: 0.64770675}
        inSlope: {x: -0.31028908, y: 0.14817059, z: 1.9433886, w: 1.672714}
        outSlope: {x: -0.31028908, y: 0.14817059, z: 1.9433886, w: 1.672714}
        tangentMode: 0
        weightedMode: 0
        inWeight: {x: 0.33333334, y: 0.33333334, z: 0.33333334, w: 0.33333334}
        outWeight: {x: 0.33333334, y: 0.33333334, z: 0.33333334, w: 0.33333334}
      - serializedVersion: 3
        time: 0.06666667
        value: {x: 0.34265402, y: 0.37321824, z: -0.47705767, w: 0.7181312}
        inSlope: {x: -0.36485457, y: 0.09038865, z: 2.0244873, w: 1.5662436}
        outSlope: {x: -0.36485457, y: 0.09038865, z: 2.0244873, w: 1.5662436}
        tangentMode: 0
        weightedMode: 0
        inWeight: {x: 0.33333334, y: 0.33333334, z: 0.33333334, w: 0.33333334}
        outWeight: {x: 0.33333334, y: 0.33333334, z: 0.33333334, w: 0.33333334}
      - serializedVersion: 3
        time: 0.10000001
        value: {x: 0.33300993, y: 0.3740572, z: -0.42836505, w: 0.752123}
        inSlope: {x: -0.14466134, y: 0.012584476, z: 0.73038906, w: 0.50987715}
        outSlope: {x: -0.14466134, y: 0.012584476, z: 0.73038906, w: 0.50987715}
        tangentMode: 0
        weightedMode: 0
        inWeight: {x: 0.33333334, y: 0.33333334, z: 0.33333334, w: 0.33333334}
        outWeight: {x: 0.33333334, y: 0.33333334, z: 0.33333334, w: 0.33333334}
      - serializedVersion: 3
        time: 0.13333334
        value: {x: 0.33300993, y: 0.3740572, z: -0.42836505, w: 0.752123}
        inSlope: {x: 0, y: 0, z: 0, w: 0}
        outSlope: {x: 0, y: 0, z: 0, w: 0}
        tangentMode: 0
        weightedMode: 0
        inWeight: {x: 0.33333334, y: 0.33333334, z: 0.33333334, w: 0.33333334}
        outWeight: {x: 0.33333334, y: 0.33333334, z: 0.33333334, w: 0.33333334}
      - serializedVersion: 3
        time: 0.43333337
        value: {x: 0.33300993, y: 0.3740572, z: -0.42836505, w: 0.752123}
        inSlope: {x: 0.00000044703486, y: 0.00000044703486, z: -0.00000089406973,
          w: 0}
        outSlope: {x: 0.00000044703486, y: 0.00000044703486, z: -0.00000089406973,
          w: 0}
        tangentMode: 0
        weightedMode: 0
        inWeight: {x: 0.33333334, y: 0.33333334, z: 0.33333334, w: 0.33333334}
        outWeight: {x: 0.33333334, y: 0.33333334, z: 0.33333334, w: 0.33333334}
      - serializedVersion: 3
        time: 0.5
        value: {x: 0.33141837, y: 0.3796152, z: -0.44306645, w: 0.74144876}
        inSlope: {x: -0.092115514, y: 0.28900212, z: -0.78653383, w: -0.5982683}
        outSlope: {x: -0.092115514, y: 0.28900212, z: -0.78653383, w: -0.5982683}
        tangentMode: 0
        weightedMode: 0
        inWeight: {x: 0.33333334, y: 0.33333334, z: 0.33333334, w: 0.33333334}
        outWeight: {x: 0.33333334, y: 0.33333334, z: 0.33333334, w: 0.33333334}
      - serializedVersion: 3
        time: 0.5666667
        value: {x: 0.3195724, y: 0.4104122, z: -0.53145903, w: 0.6685706}
        inSlope: {x: -0.24699797, y: 0.49532533, z: -1.5572367, w: -1.4356982}
        outSlope: {x: -0.24699797, y: 0.49532533, z: -1.5572367, w: -1.4356982}
        tangentMode: 0
        weightedMode: 0
        inWeight: {x: 0.33333334, y: 0.33333334, z: 0.33333334, w: 0.33333334}
        outWeight: {x: 0.33333334, y: 0.33333334, z: 0.33333334, w: 0.33333334}
      - serializedVersion: 3
        time: 0.6333334
        value: {x: 0.30143273, y: 0.43778235, z: -0.63096124, w: 0.56513083}
        inSlope: {x: -0.219807, y: 0.25017983, z: -1.1847522, w: -1.3689904}
        outSlope: {x: -0.219807, y: 0.25017983, z: -1.1847522, w: -1.3689904}
        tangentMode: 0
        weightedMode: 0
        inWeight: {x: 0.33333334, y: 0.33333334, z: 0.33333334, w: 0.33333334}
        outWeight: {x: 0.33333334, y: 0.33333334, z: 0.33333334, w: 0.33333334}
      - serializedVersion: 3
        time: 0.70000005
        value: {x: 0.29678974, y: 0.44139245, z: -0.67763776, w: 0.5078342}
        inSlope: {x: 0.1167848, y: -0.12536295, z: -0.21517557, w: -0.24033464}
        outSlope: {x: 0.1167848, y: -0.12536295, z: -0.21517557, w: -0.24033464}
        tangentMode: 0
        weightedMode: 0
        inWeight: {x: 0.33333334, y: 0.33333334, z: 0.33333334, w: 0.33333334}
        outWeight: {x: 0.33333334, y: 0.33333334, z: 0.33333334, w: 0.33333334}
      - serializedVersion: 3
        time: 0.8333334
        value: {x: 0.33227855, y: 0.40341964, z: -0.6537485, w: 0.54722613}
        inSlope: {x: 0.2983426, y: -0.34839928, z: 0.35599977, w: 0.5001998}
        outSlope: {x: 0.2983426, y: -0.34839928, z: 0.35599977, w: 0.5001998}
        tangentMode: 0
        weightedMode: 0
        inWeight: {x: 0.33333334, y: 0.33333334, z: 0.33333334, w: 0.33333334}
        outWeight: {x: 0.33333334, y: 0.33333334, z: 0.33333334, w: 0.33333334}
      - serializedVersion: 3
        time: 1
        value: {x: 0.36333996, y: 0.3633402, z: -0.6066169, w: 0.6066169}
        inSlope: {x: 0.04967456, y: -0.06726808, z: 0.090513915, w: 0.10175774}
        outSlope: {x: 0.04967456, y: -0.06726808, z: 0.090513915, w: 0.10175774}
        tangentMode: 0
        weightedMode: 0
        inWeight: {x: 0.33333334, y: 0.33333334, z: 0.33333334, w: 0.33333334}
        outWeight: {x: 0.33333334, y: 0.33333334, z: 0.33333334, w: 0.33333334}
      m_PreInfinity: 2
      m_PostInfinity: 2
      m_RotationOrder: 4
    path: KayKit Animated Character/Body/armRight/handSlotRight
  m_CompressedRotationCurves: []
  m_EulerCurves: []
  m_PositionCurves:
  - curve:
      serializedVersion: 2
      m_Curve:
      - serializedVersion: 3
        time: 0
        value: {x: -0, y: 0, z: 0}
        inSlope: {x: 0, y: 0, z: 0}
        outSlope: {x: 0, y: 0, z: 0}
        tangentMode: 0
        weightedMode: 0
        inWeight: {x: 0.33333334, y: 0.33333334, z: 0.33333334}
        outWeight: {x: 0.33333334, y: 0.33333334, z: 0.33333334}
      - serializedVersion: 3
        time: 1
        value: {x: -0, y: 0, z: 0}
        inSlope: {x: 0, y: 0, z: 0}
        outSlope: {x: 0, y: 0, z: 0}
        tangentMode: 0
        weightedMode: 0
        inWeight: {x: 0.33333334, y: 0.33333334, z: 0.33333334}
        outWeight: {x: 0.33333334, y: 0.33333334, z: 0.33333334}
      m_PreInfinity: 2
      m_PostInfinity: 2
      m_RotationOrder: 4
    path: KayKit Animated Character
  - curve:
      serializedVersion: 2
      m_Curve:
      - serializedVersion: 3
        time: 0
        value: {x: -0, y: 0, z: 0}
        inSlope: {x: -0, y: -0, z: -0}
        outSlope: {x: -0, y: -0, z: -0}
        tangentMode: 0
        weightedMode: 0
        inWeight: {x: 0.33333334, y: 0.33333334, z: 0.33333334}
        outWeight: {x: 0.33333334, y: 0.33333334, z: 0.33333334}
      - serializedVersion: 3
        time: 0.1
        value: {x: -0, y: 0, z: 0}
        inSlope: {x: -0, y: -0, z: -0}
        outSlope: {x: -4.0996513, y: -0, z: -0}
        tangentMode: 0
        weightedMode: 0
        inWeight: {x: 0.33333334, y: 0.33333334, z: 0.33333334}
        outWeight: {x: 0.33333334, y: 0.33333334, z: 0.33333334}
      - serializedVersion: 3
        time: 0.13333334
        value: {x: -0.13665506, y: 0, z: 0}
        inSlope: {x: -4.0996513, y: -0, z: -0}
        outSlope: {x: -9.218006, y: -0, z: -0}
        tangentMode: 0
        weightedMode: 0
        inWeight: {x: 0.33333334, y: 0.33333334, z: 0.33333334}
        outWeight: {x: 0.33333334, y: 0.33333334, z: 0.33333334}
      - serializedVersion: 3
        time: 0.16666667
        value: {x: -0.44392192, y: 0, z: 0}
        inSlope: {x: -9.218006, y: -0, z: -0}
        outSlope: {x: -9.714934, y: -0, z: -0}
        tangentMode: 0
        weightedMode: 0
        inWeight: {x: 0.33333334, y: 0.33333334, z: 0.33333334}
        outWeight: {x: 0.33333334, y: 0.33333334, z: 0.33333334}
      - serializedVersion: 3
        time: 0.2
        value: {x: -0.76775306, y: 0, z: 0}
        inSlope: {x: -9.714934, y: -0, z: -0}
        outSlope: {x: -5.5904355, y: -0, z: -0}
        tangentMode: 0
        weightedMode: 0
        inWeight: {x: 0.33333334, y: 0.33333334, z: 0.33333334}
        outWeight: {x: 0.33333334, y: 0.33333334, z: 0.33333334}
      - serializedVersion: 3
        time: 0.23333333
        value: {x: -0.9541009, y: 0, z: 0}
        inSlope: {x: -5.5904355, y: -0, z: -0}
        outSlope: {x: -1.7495989, y: -0, z: -0}
        tangentMode: 0
        weightedMode: 0
        inWeight: {x: 0.33333334, y: 0.33333334, z: 0.33333334}
        outWeight: {x: 0.33333334, y: 0.33333334, z: 0.33333334}
      - serializedVersion: 3
        time: 0.33333334
        value: {x: -1.0876502, y: 0, z: 0}
        inSlope: {x: -0.9420884, y: -0, z: -0}
        outSlope: {x: -0.6315101, y: -0, z: -0}
        tangentMode: 0
        weightedMode: 0
        inWeight: {x: 0.33333334, y: 0.33333334, z: 0.33333334}
        outWeight: {x: 0.33333334, y: 0.33333334, z: 0.33333334}
      - serializedVersion: 3
        time: 0.53333336
        value: {x: -1.1163793, y: 0, z: 0}
        inSlope: {x: 0.4322108, y: -0, z: -0}
        outSlope: {x: 1.2162256, y: -0, z: -0}
        tangentMode: 0
        weightedMode: 0
        inWeight: {x: 0.33333334, y: 0.33333334, z: 0.33333334}
        outWeight: {x: 0.33333334, y: 0.33333334, z: 0.33333334}
      - serializedVersion: 3
        time: 0.56666666
        value: {x: -1.0758384, y: 0, z: 0}
        inSlope: {x: 1.2162256, y: -0, z: -0}
        outSlope: {x: 1.8796154, y: -0, z: -0}
        tangentMode: 0
        weightedMode: 0
        inWeight: {x: 0.33333334, y: 0.33333334, z: 0.33333334}
        outWeight: {x: 0.33333334, y: 0.33333334, z: 0.33333334}
      - serializedVersion: 3
        time: 0.6333333
        value: {x: -0.932438, y: 0, z: 0}
        inSlope: {x: 2.4223983, y: -0, z: -0}
        outSlope: {x: 2.8445554, y: -0, z: -0}
        tangentMode: 0
        weightedMode: 0
        inWeight: {x: 0.33333334, y: 0.33333334, z: 0.33333334}
        outWeight: {x: 0.33333334, y: 0.33333334, z: 0.33333334}
      - serializedVersion: 3
        time: 0.8
        value: {x: -0.39803675, y: 0, z: 0}
        inSlope: {x: 3.3270192, y: -0, z: -0}
        outSlope: {x: 3.1461027, y: -0, z: -0}
        tangentMode: 0
        weightedMode: 0
        inWeight: {x: 0.33333334, y: 0.33333334, z: 0.33333334}
        outWeight: {x: 0.33333334, y: 0.33333334, z: 0.33333334}
      - serializedVersion: 3
        time: 0.8333333
        value: {x: -0.29316676, y: 0, z: 0}
        inSlope: {x: 3.1461027, y: -0, z: -0}
        outSlope: {x: 2.8445537, y: -0, z: -0}
        tangentMode: 0
        weightedMode: 0
        inWeight: {x: 0.33333334, y: 0.33333334, z: 0.33333334}
        outWeight: {x: 0.33333334, y: 0.33333334, z: 0.33333334}
      - serializedVersion: 3
        time: 0.8666667
        value: {x: -0.19834822, y: 0, z: 0}
        inSlope: {x: 2.8445537, y: -0, z: -0}
        outSlope: {x: 2.4223964, y: -0, z: -0}
        tangentMode: 0
        weightedMode: 0
        inWeight: {x: 0.33333334, y: 0.33333334, z: 0.33333334}
        outWeight: {x: 0.33333334, y: 0.33333334, z: 0.33333334}
      - serializedVersion: 3
        time: 0.9
        value: {x: -0.11760175, y: 0, z: 0}
        inSlope: {x: 2.4223964, y: -0, z: -0}
        outSlope: {x: 1.879619, y: -0, z: -0}
        tangentMode: 0
        weightedMode: 0
        inWeight: {x: 0.33333334, y: 0.33333334, z: 0.33333334}
        outWeight: {x: 0.33333334, y: 0.33333334, z: 0.33333334}
      - serializedVersion: 3
        time: 0.93333334
        value: {x: -0.054947734, y: 0, z: 0}
        inSlope: {x: 1.879619, y: -0, z: -0}
        outSlope: {x: 1.2162185, y: -0, z: -0}
        tangentMode: 0
        weightedMode: 0
        inWeight: {x: 0.33333334, y: 0.33333334, z: 0.33333334}
        outWeight: {x: 0.33333334, y: 0.33333334, z: 0.33333334}
      - serializedVersion: 3
        time: 0.96666664
        value: {x: -0.014407158, y: 0, z: 0}
        inSlope: {x: 1.2162185, y: -0, z: -0}
        outSlope: {x: 0.43221438, y: -0, z: -0}
        tangentMode: 0
        weightedMode: 0
        inWeight: {x: 0.33333334, y: 0.33333334, z: 0.33333334}
        outWeight: {x: 0.33333334, y: 0.33333334, z: 0.33333334}
      - serializedVersion: 3
        time: 1
        value: {x: -0, y: 0, z: 0}
        inSlope: {x: 0.43221438, y: -0, z: -0}
        outSlope: {x: 0.43221438, y: -0, z: -0}
        tangentMode: 0
        weightedMode: 0
        inWeight: {x: 0.33333334, y: 0.33333334, z: 0.33333334}
        outWeight: {x: 0.33333334, y: 0.33333334, z: 0.33333334}
      m_PreInfinity: 2
      m_PostInfinity: 2
      m_RotationOrder: 4
    path: KayKit Animated Character/Body
  - curve:
      serializedVersion: 2
      m_Curve:
      - serializedVersion: 3
        time: 0
        value: {x: -0, y: 0.7115979, z: 0}
        inSlope: {x: 0, y: 0, z: 0}
        outSlope: {x: 0, y: 0, z: 0}
        tangentMode: 0
        weightedMode: 0
        inWeight: {x: 0.33333334, y: 0.33333334, z: 0.33333334}
        outWeight: {x: 0.33333334, y: 0.33333334, z: 0.33333334}
      - serializedVersion: 3
        time: 1
        value: {x: -0, y: 0.7115979, z: 0}
        inSlope: {x: 0, y: 0, z: 0}
        outSlope: {x: 0, y: 0, z: 0}
        tangentMode: 0
        weightedMode: 0
        inWeight: {x: 0.33333334, y: 0.33333334, z: 0.33333334}
        outWeight: {x: 0.33333334, y: 0.33333334, z: 0.33333334}
      m_PreInfinity: 2
      m_PostInfinity: 2
      m_RotationOrder: 4
    path: KayKit Animated Character/Body/Head
  - curve:
      serializedVersion: 2
      m_Curve:
      - serializedVersion: 3
        time: 0
        value: {x: -0.14, y: 0.69159794, z: 0}
        inSlope: {x: 0, y: 0, z: 0}
        outSlope: {x: 0, y: 0, z: 0}
        tangentMode: 0
        weightedMode: 0
        inWeight: {x: 0.33333334, y: 0.33333334, z: 0.33333334}
        outWeight: {x: 0.33333334, y: 0.33333334, z: 0.33333334}
      - serializedVersion: 3
        time: 1
        value: {x: -0.14, y: 0.69159794, z: 0}
        inSlope: {x: 0, y: 0, z: 0}
        outSlope: {x: 0, y: 0, z: 0}
        tangentMode: 0
        weightedMode: 0
        inWeight: {x: 0.33333334, y: 0.33333334, z: 0.33333334}
        outWeight: {x: 0.33333334, y: 0.33333334, z: 0.33333334}
      m_PreInfinity: 2
      m_PostInfinity: 2
      m_RotationOrder: 4
    path: KayKit Animated Character/Body/armLeft
  - curve:
      serializedVersion: 2
      m_Curve:
      - serializedVersion: 3
        time: 0
        value: {x: 3.5527137e-15, y: 0.5509222, z: -0.000000014901163}
        inSlope: {x: 0, y: 0, z: 0}
        outSlope: {x: 0, y: 0, z: 0}
        tangentMode: 0
        weightedMode: 0
        inWeight: {x: 0.33333334, y: 0.33333334, z: 0.33333334}
        outWeight: {x: 0.33333334, y: 0.33333334, z: 0.33333334}
      - serializedVersion: 3
        time: 1
        value: {x: 3.5527137e-15, y: 0.5509222, z: -0.000000014901163}
        inSlope: {x: 0, y: 0, z: 0}
        outSlope: {x: 0, y: 0, z: 0}
        tangentMode: 0
        weightedMode: 0
        inWeight: {x: 0.33333334, y: 0.33333334, z: 0.33333334}
        outWeight: {x: 0.33333334, y: 0.33333334, z: 0.33333334}
      m_PreInfinity: 2
      m_PostInfinity: 2
      m_RotationOrder: 4
    path: KayKit Animated Character/Body/armLeft/handSlotLeft
  - curve:
      serializedVersion: 2
      m_Curve:
      - serializedVersion: 3
        time: 0
        value: {x: 0.14, y: 0.69159794, z: 0}
        inSlope: {x: 0, y: 0, z: 0}
        outSlope: {x: 0, y: 0, z: 0}
        tangentMode: 0
        weightedMode: 0
        inWeight: {x: 0.33333334, y: 0.33333334, z: 0.33333334}
        outWeight: {x: 0.33333334, y: 0.33333334, z: 0.33333334}
      - serializedVersion: 3
        time: 1
        value: {x: 0.14, y: 0.69159794, z: 0}
        inSlope: {x: 0, y: 0, z: 0}
        outSlope: {x: 0, y: 0, z: 0}
        tangentMode: 0
        weightedMode: 0
        inWeight: {x: 0.33333334, y: 0.33333334, z: 0.33333334}
        outWeight: {x: 0.33333334, y: 0.33333334, z: 0.33333334}
      m_PreInfinity: 2
      m_PostInfinity: 2
      m_RotationOrder: 4
    path: KayKit Animated Character/Body/armRight
  - curve:
      serializedVersion: 2
      m_Curve:
      - serializedVersion: 3
        time: 0
        value: {x: 3.5527137e-15, y: 0.5509222, z: 0.000000014901172}
        inSlope: {x: 0, y: 0, z: 0}
        outSlope: {x: 0, y: 0, z: 0}
        tangentMode: 0
        weightedMode: 0
        inWeight: {x: 0.33333334, y: 0.33333334, z: 0.33333334}
        outWeight: {x: 0.33333334, y: 0.33333334, z: 0.33333334}
      - serializedVersion: 3
        time: 1
        value: {x: 3.5527137e-15, y: 0.5509222, z: 0.000000014901172}
        inSlope: {x: 0, y: 0, z: 0}
        outSlope: {x: 0, y: 0, z: 0}
        tangentMode: 0
        weightedMode: 0
        inWeight: {x: 0.33333334, y: 0.33333334, z: 0.33333334}
        outWeight: {x: 0.33333334, y: 0.33333334, z: 0.33333334}
      m_PreInfinity: 2
      m_PostInfinity: 2
      m_RotationOrder: 4
    path: KayKit Animated Character/Body/armRight/handSlotRight
  m_ScaleCurves:
  - curve:
      serializedVersion: 2
      m_Curve:
      - serializedVersion: 3
        time: 0
        value: {x: 1, y: 1, z: 1}
        inSlope: {x: 0, y: 0, z: 0}
        outSlope: {x: 0, y: 0, z: 0}
        tangentMode: 0
        weightedMode: 0
        inWeight: {x: 0.33333334, y: 0.33333334, z: 0.33333334}
        outWeight: {x: 0.33333334, y: 0.33333334, z: 0.33333334}
      - serializedVersion: 3
        time: 1
        value: {x: 1, y: 1, z: 1}
        inSlope: {x: 0, y: 0, z: 0}
        outSlope: {x: 0, y: 0, z: 0}
        tangentMode: 0
        weightedMode: 0
        inWeight: {x: 0.33333334, y: 0.33333334, z: 0.33333334}
        outWeight: {x: 0.33333334, y: 0.33333334, z: 0.33333334}
      m_PreInfinity: 2
      m_PostInfinity: 2
      m_RotationOrder: 4
    path: KayKit Animated Character
  - curve:
      serializedVersion: 2
      m_Curve:
      - serializedVersion: 3
        time: 0
        value: {x: 1, y: 1, z: 1}
        inSlope: {x: 0, y: 0, z: 0}
        outSlope: {x: 0, y: 0, z: 0}
        tangentMode: 0
        weightedMode: 0
        inWeight: {x: 0.33333334, y: 0.33333334, z: 0.33333334}
        outWeight: {x: 0.33333334, y: 0.33333334, z: 0.33333334}
      - serializedVersion: 3
        time: 1
        value: {x: 1, y: 1, z: 1}
        inSlope: {x: 0, y: 0, z: 0}
        outSlope: {x: 0, y: 0, z: 0}
        tangentMode: 0
        weightedMode: 0
        inWeight: {x: 0.33333334, y: 0.33333334, z: 0.33333334}
        outWeight: {x: 0.33333334, y: 0.33333334, z: 0.33333334}
      m_PreInfinity: 2
      m_PostInfinity: 2
      m_RotationOrder: 4
    path: KayKit Animated Character/Body
  - curve:
      serializedVersion: 2
      m_Curve:
      - serializedVersion: 3
        time: 0
        value: {x: 1, y: 0.99999994, z: 1}
        inSlope: {x: 0, y: 0, z: 0}
        outSlope: {x: 0, y: 0, z: 0}
        tangentMode: 0
        weightedMode: 0
        inWeight: {x: 0.33333334, y: 0.33333334, z: 0.33333334}
        outWeight: {x: 0.33333334, y: 0.33333334, z: 0.33333334}
      - serializedVersion: 3
        time: 1
        value: {x: 1, y: 0.99999994, z: 1}
        inSlope: {x: 0, y: 0, z: 0}
        outSlope: {x: 0, y: 0, z: 0}
        tangentMode: 0
        weightedMode: 0
        inWeight: {x: 0.33333334, y: 0.33333334, z: 0.33333334}
        outWeight: {x: 0.33333334, y: 0.33333334, z: 0.33333334}
      m_PreInfinity: 2
      m_PostInfinity: 2
      m_RotationOrder: 4
    path: KayKit Animated Character/Body/Head
  - curve:
      serializedVersion: 2
      m_Curve:
      - serializedVersion: 3
        time: 0
        value: {x: 1.000001, y: 1.0000001, z: 1}
        inSlope: {x: 0, y: 0, z: 0}
        outSlope: {x: 0, y: 0, z: 0}
        tangentMode: 0
        weightedMode: 0
        inWeight: {x: 0.33333334, y: 0.33333334, z: 0.33333334}
        outWeight: {x: 0.33333334, y: 0.33333334, z: 0.33333334}
      - serializedVersion: 3
        time: 1
        value: {x: 1.000001, y: 1.0000001, z: 1}
        inSlope: {x: 0, y: 0, z: 0}
        outSlope: {x: 0, y: 0, z: 0}
        tangentMode: 0
        weightedMode: 0
        inWeight: {x: 0.33333334, y: 0.33333334, z: 0.33333334}
        outWeight: {x: 0.33333334, y: 0.33333334, z: 0.33333334}
      m_PreInfinity: 2
      m_PostInfinity: 2
      m_RotationOrder: 4
    path: KayKit Animated Character/Body/armLeft
  - curve:
      serializedVersion: 2
      m_Curve:
      - serializedVersion: 3
        time: 0
        value: {x: 1.0034293, y: 1.0034294, z: 1.0034293}
        inSlope: {x: 0, y: 0, z: 0}
        outSlope: {x: 0, y: 0, z: 0}
        tangentMode: 0
        weightedMode: 0
        inWeight: {x: 0.33333334, y: 0.33333334, z: 0.33333334}
        outWeight: {x: 0.33333334, y: 0.33333334, z: 0.33333334}
      - serializedVersion: 3
        time: 1
        value: {x: 1.0034293, y: 1.0034294, z: 1.0034293}
        inSlope: {x: 0, y: 0, z: 0}
        outSlope: {x: 0, y: 0, z: 0}
        tangentMode: 0
        weightedMode: 0
        inWeight: {x: 0.33333334, y: 0.33333334, z: 0.33333334}
        outWeight: {x: 0.33333334, y: 0.33333334, z: 0.33333334}
      m_PreInfinity: 2
      m_PostInfinity: 2
      m_RotationOrder: 4
    path: KayKit Animated Character/Body/armLeft/handSlotLeft
  - curve:
      serializedVersion: 2
      m_Curve:
      - serializedVersion: 3
        time: 0
        value: {x: 1.000001, y: 1.0000001, z: 1}
        inSlope: {x: 0, y: 0, z: 0}
        outSlope: {x: 0, y: 0, z: 0}
        tangentMode: 0
        weightedMode: 0
        inWeight: {x: 0.33333334, y: 0.33333334, z: 0.33333334}
        outWeight: {x: 0.33333334, y: 0.33333334, z: 0.33333334}
      - serializedVersion: 3
        time: 1
        value: {x: 1.000001, y: 1.0000001, z: 1}
        inSlope: {x: 0, y: 0, z: 0}
        outSlope: {x: 0, y: 0, z: 0}
        tangentMode: 0
        weightedMode: 0
        inWeight: {x: 0.33333334, y: 0.33333334, z: 0.33333334}
        outWeight: {x: 0.33333334, y: 0.33333334, z: 0.33333334}
      m_PreInfinity: 2
      m_PostInfinity: 2
      m_RotationOrder: 4
    path: KayKit Animated Character/Body/armRight
  - curve:
      serializedVersion: 2
      m_Curve:
      - serializedVersion: 3
        time: 0
        value: {x: 0.99999994, y: 1, z: 0.99999994}
        inSlope: {x: 0, y: 0, z: 0}
        outSlope: {x: 0, y: 0, z: 0}
        tangentMode: 0
        weightedMode: 0
        inWeight: {x: 0.33333334, y: 0.33333334, z: 0.33333334}
        outWeight: {x: 0.33333334, y: 0.33333334, z: 0.33333334}
      - serializedVersion: 3
        time: 1
        value: {x: 0.99999994, y: 1, z: 0.99999994}
        inSlope: {x: 0, y: 0, z: 0}
        outSlope: {x: 0, y: 0, z: 0}
        tangentMode: 0
        weightedMode: 0
        inWeight: {x: 0.33333334, y: 0.33333334, z: 0.33333334}
        outWeight: {x: 0.33333334, y: 0.33333334, z: 0.33333334}
      m_PreInfinity: 2
      m_PostInfinity: 2
      m_RotationOrder: 4
    path: KayKit Animated Character/Body/armRight/handSlotRight
  m_FloatCurves: []
  m_PPtrCurves: []
  m_SampleRate: 30
  m_WrapMode: 0
  m_Bounds:
    m_Center: {x: 0, y: 0, z: 0}
    m_Extent: {x: 0, y: 0, z: 0}
  m_ClipBindingConstant:
    genericBindings: []
    pptrCurveMapping: []
  m_AnimationClipSettings:
    serializedVersion: 2
    m_AdditiveReferencePoseClip: {fileID: 0}
    m_AdditiveReferencePoseTime: 0
    m_StartTime: 0
    m_StopTime: 1
    m_OrientationOffsetY: 0
    m_Level: 0
    m_CycleOffset: 0
    m_HasAdditiveReferencePose: 0
    m_LoopTime: 0
    m_LoopBlend: 0
    m_LoopBlendOrientation: 0
    m_LoopBlendPositionY: 0
    m_LoopBlendPositionXZ: 0
    m_KeepOriginalOrientation: 0
    m_KeepOriginalPositionY: 1
    m_KeepOriginalPositionXZ: 0
    m_HeightFromFeet: 0
    m_Mirror: 0
  m_EditorCurves: []
  m_EulerEditorCurves: []
  m_HasGenericRootTransform: 0
  m_HasMotionFloatCurves: 0
  m_Events: []
