%YAML 1.1
%TAG !u! tag:unity3d.com,2011:
--- !u!74 &7400000
AnimationClip:
  m_ObjectHideFlags: 0
  m_CorrespondingSourceObject: {fileID: 0}
  m_PrefabInstance: {fileID: 0}
  m_PrefabAsset: {fileID: 0}
  m_Name: Player_AttackUpToDown
  serializedVersion: 6
  m_Legacy: 0
  m_Compressed: 0
  m_UseHighQualityCurve: 1
  m_RotationCurves:
  - curve:
      serializedVersion: 2
      m_Curve:
      - serializedVersion: 3
        time: 0
        value: {x: -0.0000002761675, y: 0.00000029802334, z: 0.00000006717954, w: 1}
        inSlope: {x: 0, y: 0, z: 0, w: 0}
        outSlope: {x: 0, y: 0, z: 0, w: 0}
        tangentMode: 0
        weightedMode: 0
        inWeight: {x: 0.33333334, y: 0.33333334, z: 0.33333334, w: 0.33333334}
        outWeight: {x: 0.33333334, y: 0.33333334, z: 0.33333334, w: 0.33333334}
      - serializedVersion: 3
        time: 1.0666667
        value: {x: -0.0000002761675, y: 0.00000029802334, z: 0.00000006717954, w: 1}
        inSlope: {x: 0, y: 0, z: 0, w: 0}
        outSlope: {x: 0, y: 0, z: 0, w: 0}
        tangentMode: 0
        weightedMode: 0
        inWeight: {x: 0.33333334, y: 0.33333334, z: 0.33333334, w: 0.33333334}
        outWeight: {x: 0.33333334, y: 0.33333334, z: 0.33333334, w: 0.33333334}
      m_PreInfinity: 2
      m_PostInfinity: 2
      m_RotationOrder: 4
    path: KayKit Animated Character
  - curve:
      serializedVersion: 2
      m_Curve:
      - serializedVersion: 3
        time: 0
        value: {x: -0.00000008146034, y: 0, z: -0, w: 1}
        inSlope: {x: 0.09482091, y: 0.0052220183, z: 0.09123203, w: -0.0002878904}
        outSlope: {x: 0.09482091, y: 0.0052220183, z: 0.09123203, w: -0.0002878904}
        tangentMode: 0
        weightedMode: 0
        inWeight: {x: 0.33333334, y: 0.33333334, z: 0.33333334, w: 0.33333334}
        outWeight: {x: 0.33333334, y: 0.33333334, z: 0.33333334, w: 0.33333334}
      - serializedVersion: 3
        time: 0.20000002
        value: {x: 0.05385382, y: 0.002965865, z: 0.051815588, w: 0.9971991}
        inSlope: {x: 0.17027742, y: 0.009377598, z: 0.16383258, w: -0.01691937}
        outSlope: {x: 0.17027742, y: 0.009377598, z: 0.16383258, w: -0.01691937}
        tangentMode: 0
        weightedMode: 0
        inWeight: {x: 0.33333334, y: 0.33333334, z: 0.33333334, w: 0.33333334}
        outWeight: {x: 0.33333334, y: 0.33333334, z: 0.33333334, w: 0.33333334}
      - serializedVersion: 3
        time: 0.26666668
        value: {x: 0.0368709, y: 0.0028234133, z: 0.049326856, w: 0.9980979}
        inSlope: {x: -1.0311222, y: -0.016417526, z: -0.2868246, w: 0.036511127}
        outSlope: {x: -1.0311222, y: -0.016417526, z: -0.2868246, w: 0.036511127}
        tangentMode: 0
        weightedMode: 0
        inWeight: {x: 0.33333334, y: 0.33333334, z: 0.33333334, w: 0.33333334}
        outWeight: {x: 0.33333334, y: 0.33333334, z: 0.33333334, w: 0.33333334}
      - serializedVersion: 3
        time: 0.33333334
        value: {x: -0.06973889, y: 0.0011120617, z: 0.019428436, w: 0.9973754}
        inSlope: {x: -1.5947973, y: -0.025805514, z: -0.45083892, w: -0.094389625}
        outSlope: {x: -1.5947973, y: -0.025805514, z: -0.45083892, w: -0.094389625}
        tangentMode: 0
        weightedMode: 0
        inWeight: {x: 0.33333334, y: 0.33333334, z: 0.33333334, w: 0.33333334}
        outWeight: {x: 0.33333334, y: 0.33333334, z: 0.33333334, w: 0.33333334}
      - serializedVersion: 3
        time: 0.36666667
        value: {x: -0.11800245, y: 0.00032750462, z: 0.0057217237, w: 0.99299675}
        inSlope: {x: -1.0245337, y: -0.016680922, z: -0.29142648, w: -0.10423419}
        outSlope: {x: -1.0245337, y: -0.016680922, z: -0.29142648, w: -0.10423419}
        tangentMode: 0
        weightedMode: 0
        inWeight: {x: 0.33333334, y: 0.33333334, z: 0.33333334, w: 0.33333334}
        outWeight: {x: 0.33333334, y: 0.33333334, z: 0.33333334, w: 0.33333334}
      - serializedVersion: 3
        time: 0.40000004
        value: {x: -0.13804115, y: -4.3682506e-24, z: -3.0651283e-17, w: 0.9904265}
        inSlope: {x: 0.6579845, y: -0.004912565, z: -0.085825786, w: 0.06377046}
        outSlope: {x: 0.6579845, y: -0.004912565, z: -0.085825786, w: 0.06377046}
        tangentMode: 0
        weightedMode: 0
        inWeight: {x: 0.33333334, y: 0.33333334, z: 0.33333334, w: 0.33333334}
        outWeight: {x: 0.33333334, y: 0.33333334, z: 0.33333334, w: 0.33333334}
      - serializedVersion: 3
        time: 0.43333337
        value: {x: -0.07413684, y: -1.8704216e-18, z: -2.905859e-17, w: 0.9972481}
        inSlope: {x: 2.7617922, y: -7.594401e-17, z: 5.300566e-17, w: 0.12767048}
        outSlope: {x: 2.7617922, y: -7.594401e-17, z: 5.300566e-17, w: 0.12767048}
        tangentMode: 0
        weightedMode: 0
        inWeight: {x: 0.33333334, y: 0.33333334, z: 0.33333334, w: 0.33333334}
        outWeight: {x: 0.33333334, y: 0.33333334, z: 0.33333334, w: 0.33333334}
      - serializedVersion: 3
        time: 0.4666667
        value: {x: 0.04607832, y: -5.062938e-18, z: -2.7117573e-17, w: 0.99893785}
        inSlope: {x: 2.764285, y: -6.819696e-17, z: 5.711378e-17, w: -0.049994662}
        outSlope: {x: 2.764285, y: -6.819696e-17, z: 5.711378e-17, w: -0.049994662}
        tangentMode: 0
        weightedMode: 0
        inWeight: {x: 0.33333334, y: 0.33333334, z: 0.33333334, w: 0.33333334}
        outWeight: {x: 0.33333334, y: 0.33333334, z: 0.33333334, w: 0.33333334}
      - serializedVersion: 3
        time: 0.5
        value: {x: 0.11014876, y: -6.4168842e-18, z: -2.5251007e-17, w: 0.99391514}
        inSlope: {x: 0.9600906, y: -1.462414e-17, z: 5.0272944e-17, w: -0.07523425}
        outSlope: {x: 0.9600906, y: -1.462414e-17, z: 5.0272944e-17, w: -0.07523425}
        tangentMode: 0
        weightedMode: 0
        inWeight: {x: 0.33333334, y: 0.33333334, z: 0.33333334, w: 0.33333334}
        outWeight: {x: 0.33333334, y: 0.33333334, z: 0.33333334, w: 0.33333334}
      - serializedVersion: 3
        time: 0.53333336
        value: {x: 0.1100843, y: -6.037879e-18, z: -2.3766044e-17, w: 0.99392223}
        inSlope: {x: -0.0019335358, y: 1.1367258e-17, z: 4.4549595e-17, w: 0.00021368248}
        outSlope: {x: -0.0019335358, y: 1.1367258e-17, z: 4.4549595e-17, w: 0.00021368248}
        tangentMode: 0
        weightedMode: 0
        inWeight: {x: 0.33333334, y: 0.33333334, z: 0.33333334, w: 0.33333334}
        outWeight: {x: 0.33333334, y: 0.33333334, z: 0.33333334, w: 0.33333334}
      - serializedVersion: 3
        time: 0.8000001
        value: {x: 0.07181157, y: -2.5601048e-18, z: -1.1990246e-17, w: 0.9974182}
        inSlope: {x: -0.35274565, y: 1.3822359e-17, z: 4.4060483e-17, w: 0.025253892}
        outSlope: {x: -0.35274565, y: 1.3822359e-17, z: 4.4060483e-17, w: 0.025253892}
        tangentMode: 0
        weightedMode: 0
        inWeight: {x: 0.33333334, y: 0.33333334, z: 0.33333334, w: 0.33333334}
        outWeight: {x: 0.33333334, y: 0.33333334, z: 0.33333334, w: 0.33333334}
      - serializedVersion: 3
        time: 1.0666667
        value: {x: -0.00000008146034, y: 0, z: -0, w: 1}
        inSlope: {x: -0.053564165, y: 6.4279953e-18, z: 4.5525295e-17, w: 0.000046491667}
        outSlope: {x: -0.053564165, y: 6.4279953e-18, z: 4.5525295e-17, w: 0.000046491667}
        tangentMode: 0
        weightedMode: 0
        inWeight: {x: 0.33333334, y: 0.33333334, z: 0.33333334, w: 0.33333334}
        outWeight: {x: 0.33333334, y: 0.33333334, z: 0.33333334, w: 0.33333334}
      m_PreInfinity: 2
      m_PostInfinity: 2
      m_RotationOrder: 4
    path: KayKit Animated Character/Body
  - curve:
      serializedVersion: 2
      m_Curve:
      - serializedVersion: 3
        time: 0
        value: {x: 7.1054274e-15, y: 0, z: -0, w: 1}
        inSlope: {x: 0.0000000071276047, y: -0.017781297, z: -0.15481652, w: -0.00040411946}
        outSlope: {x: 0.0000000071276047, y: -0.017781297, z: -0.15481652, w: -0.00040411946}
        tangentMode: 0
        weightedMode: 0
        inWeight: {x: 0.33333334, y: 0.33333334, z: 0.33333334, w: 0.33333334}
        outWeight: {x: 0.33333334, y: 0.33333334, z: 0.33333334, w: 0.33333334}
      - serializedVersion: 3
        time: 0.16666667
        value: {x: 7.815451e-10, y: -0.00856824, z: -0.074601136, w: 0.99717665}
        inSlope: {x: -0.0000000033948897, y: -0.05418273, z: -0.47175282, w: -0.03459334}
        outSlope: {x: -0.0000000033948897, y: -0.05418273, z: -0.47175282, w: -0.03459334}
        tangentMode: 0
        weightedMode: 0
        inWeight: {x: 0.33333334, y: 0.33333334, z: 0.33333334, w: 0.33333334}
        outWeight: {x: 0.33333334, y: 0.33333334, z: 0.33333334, w: 0.33333334}
      - serializedVersion: 3
        time: 0.26666668
        value: {x: -0.022645896, y: -0.009624011, z: -0.08379345, w: 0.99617934}
        inSlope: {x: -1.1543015, y: 0.055679776, z: 0.48478734, w: -0.00662148}
        outSlope: {x: -1.1543015, y: 0.055679776, z: 0.48478734, w: -0.00662148}
        tangentMode: 0
        weightedMode: 0
        inWeight: {x: 0.33333334, y: 0.33333334, z: 0.33333334, w: 0.33333334}
        outWeight: {x: 0.33333334, y: 0.33333334, z: 0.33333334, w: 0.33333334}
      - serializedVersion: 3
        time: 0.33333334
        value: {x: -0.14159915, y: -0.003794201, z: -0.03303501, w: 0.98936546}
        inSlope: {x: -1.7695794, y: 0.08807908, z: 0.76687896, w: -0.21574172}
        outSlope: {x: -1.7695794, y: 0.08807908, z: 0.76687896, w: -0.21574172}
        tangentMode: 0
        weightedMode: 0
        inWeight: {x: 0.33333334, y: 0.33333334, z: 0.33333334, w: 0.33333334}
        outWeight: {x: 0.33333334, y: 0.33333334, z: 0.33333334, w: 0.33333334}
      - serializedVersion: 3
        time: 0.40000004
        value: {x: -0.21691555, y: 4.9373724e-25, z: -4.816492e-17, w: 0.9761904}
        inSlope: {x: 0.09112856, y: 0.016740818, z: 0.14575726, w: 0.018550225}
        outSlope: {x: 0.09112856, y: 0.016740818, z: 0.14575726, w: 0.018550225}
        tangentMode: 0
        weightedMode: 0
        inWeight: {x: 0.33333334, y: 0.33333334, z: 0.33333334, w: 0.33333334}
        outWeight: {x: 0.33333334, y: 0.33333334, z: 0.33333334, w: 0.33333334}
      - serializedVersion: 3
        time: 0.4666667
        value: {x: -0.124675274, y: -4.0537843e-18, z: -4.315847e-17, w: 0.99219763}
        inSlope: {x: 2.0106356, y: -8.048212e-17, z: 8.018719e-17, w: 0.24736504}
        outSlope: {x: 2.0106356, y: -8.048212e-17, z: 8.018719e-17, w: 0.24736504}
        tangentMode: 0
        weightedMode: 0
        inWeight: {x: 0.33333334, y: 0.33333334, z: 0.33333334, w: 0.33333334}
        outWeight: {x: 0.33333334, y: 0.33333334, z: 0.33333334, w: 0.33333334}
      - serializedVersion: 3
        time: 0.53333336
        value: {x: -0.00353955, y: -8.224984e-18, z: -3.7643855e-17, w: 0.99999374}
        inSlope: {x: 1.2378193, y: -3.1998896e-17, z: 8.0387596e-17, w: 0.016784355}
        outSlope: {x: 1.2378193, y: -3.1998896e-17, z: 8.0387596e-17, w: 0.016784355}
        tangentMode: 0
        weightedMode: 0
        inWeight: {x: 0.33333334, y: 0.33333334, z: 0.33333334, w: 0.33333334}
        outWeight: {x: 0.33333334, y: 0.33333334, z: 0.33333334, w: 0.33333334}
      - serializedVersion: 3
        time: 0.70000005
        value: {x: 0.044418834, y: -6.8892432e-18, z: -2.5579206e-17, w: 0.999013}
        inSlope: {x: -0.084161535, y: 2.0903281e-17, z: 6.919306e-17, w: 0.0036934027}
        outSlope: {x: -0.084161535, y: 2.0903281e-17, z: 6.919306e-17, w: 0.0036934027}
        tangentMode: 0
        weightedMode: 0
        inWeight: {x: 0.33333334, y: 0.33333334, z: 0.33333334, w: 0.33333334}
        outWeight: {x: 0.33333334, y: 0.33333334, z: 0.33333334, w: 0.33333334}
      - serializedVersion: 3
        time: 1.0666667
        value: {x: 7.1054274e-15, y: 0, z: -0, w: 1}
        inSlope: {x: -0.023969252, y: 1.5727898e-17, z: 7.051454e-17, w: 0.000008940705}
        outSlope: {x: -0.023969252, y: 1.5727898e-17, z: 7.051454e-17, w: 0.000008940705}
        tangentMode: 0
        weightedMode: 0
        inWeight: {x: 0.33333334, y: 0.33333334, z: 0.33333334, w: 0.33333334}
        outWeight: {x: 0.33333334, y: 0.33333334, z: 0.33333334, w: 0.33333334}
      m_PreInfinity: 2
      m_PostInfinity: 2
      m_RotationOrder: 4
    path: KayKit Animated Character/Body/Head
  - curve:
      serializedVersion: 2
      m_Curve:
      - serializedVersion: 3
        time: 0
        value: {x: 0.68586326, y: -0.17202254, z: 0.68586314, w: 0.17202257}
        inSlope: {x: 0.02275586, y: 0.48282263, z: 0.042255517, w: 0.19704355}
        outSlope: {x: 0.02275586, y: 0.48282263, z: 0.042255517, w: 0.19704355}
        tangentMode: 0
        weightedMode: 0
        inWeight: {x: 0.33333334, y: 0.33333334, z: 0.33333334, w: 0.33333334}
        outWeight: {x: 0.33333334, y: 0.33333334, z: 0.33333334, w: 0.33333334}
      - serializedVersion: 3
        time: 0.06666667
        value: {x: 0.6876356, y: -0.10948957, z: 0.69014925, w: 0.19713798}
        inSlope: {x: -0.0147342635, y: 1.8269104, z: 0.05803316, w: 0.7105441}
        outSlope: {x: -0.0147342635, y: 1.8269104, z: 0.05803316, w: 0.7105441}
        tangentMode: 0
        weightedMode: 0
        inWeight: {x: 0.33333334, y: 0.33333334, z: 0.33333334, w: 0.33333334}
        outWeight: {x: 0.33333334, y: 0.33333334, z: 0.33333334, w: 0.33333334}
      - serializedVersion: 3
        time: 0.16666667
        value: {x: 0.65317154, y: 0.19077997, z: 0.6673241, w: 0.30273494}
        inSlope: {x: -0.9138874, y: 3.8128953, z: -0.77085865, w: 1.1746585}
        outSlope: {x: -0.9138874, y: 3.8128953, z: -0.77085865, w: 1.1746585}
        tangentMode: 0
        weightedMode: 0
        inWeight: {x: 0.33333334, y: 0.33333334, z: 0.33333334, w: 0.33333334}
        outWeight: {x: 0.33333334, y: 0.33333334, z: 0.33333334, w: 0.33333334}
      - serializedVersion: 3
        time: 0.20000002
        value: {x: 0.61492133, y: 0.3221939, z: 0.63393605, w: 0.34086353}
        inSlope: {x: -1.3439841, y: 3.8394682, z: -1.2041955, w: 1.0349436}
        outSlope: {x: -1.3439841, y: 3.8394682, z: -1.2041955, w: 1.0349436}
        tangentMode: 0
        weightedMode: 0
        inWeight: {x: 0.33333334, y: 0.33333334, z: 0.33333334, w: 0.33333334}
        outWeight: {x: 0.33333334, y: 0.33333334, z: 0.33333334, w: 0.33333334}
      - serializedVersion: 3
        time: 0.26666668
        value: {x: 0.5065852, y: 0.55154586, z: 0.53366965, w: 0.39289376}
        inSlope: {x: -1.659781, y: 2.7592378, z: -1.566268, w: 0.50153154}
        outSlope: {x: -1.659781, y: 2.7592378, z: -1.566268, w: 0.50153154}
        tangentMode: 0
        weightedMode: 0
        inWeight: {x: 0.33333334, y: 0.33333334, z: 0.33333334, w: 0.33333334}
        outWeight: {x: 0.33333334, y: 0.33333334, z: 0.33333334, w: 0.33333334}
      - serializedVersion: 3
        time: 0.36666667
        value: {x: 0.38154635, y: 0.7156056, z: 0.41392708, w: 0.4135159}
        inSlope: {x: -0.5732492, y: 0.6237047, z: -0.55409557, w: 0.044227835}
        outSlope: {x: -0.5732492, y: 0.6237047, z: -0.55409557, w: 0.044227835}
        tangentMode: 0
        weightedMode: 0
        inWeight: {x: 0.33333334, y: 0.33333334, z: 0.33333334, w: 0.33333334}
        outWeight: {x: 0.33333334, y: 0.33333334, z: 0.33333334, w: 0.33333334}
      - serializedVersion: 3
        time: 0.43333337
        value: {x: 0.39046782, y: 0.7073961, z: 0.42796886, w: 0.40493014}
        inSlope: {x: 0.9081589, y: -0.98441017, z: 1.1729462, w: -0.5097409}
        outSlope: {x: 0.9081589, y: -0.98441017, z: 1.1729462, w: -0.5097409}
        tangentMode: 0
        weightedMode: 0
        inWeight: {x: 0.33333334, y: 0.33333334, z: 0.33333334, w: 0.33333334}
        outWeight: {x: 0.33333334, y: 0.33333334, z: 0.33333334, w: 0.33333334}
      - serializedVersion: 3
        time: 0.4666667
        value: {x: 0.43204644, y: 0.6604118, z: 0.48239535, w: 0.38011426}
        inSlope: {x: 1.2302918, y: -1.5594918, z: 1.6963881, w: -0.8803829}
        outSlope: {x: 1.2302918, y: -1.5594918, z: 1.6963881, w: -0.8803829}
        tangentMode: 0
        weightedMode: 0
        inWeight: {x: 0.33333334, y: 0.33333334, z: 0.33333334, w: 0.33333334}
        outWeight: {x: 0.33333334, y: 0.33333334, z: 0.33333334, w: 0.33333334}
      - serializedVersion: 3
        time: 0.5
        value: {x: 0.47248724, y: 0.60343003, z: 0.54106134, w: 0.346238}
        inSlope: {x: 0.97963154, y: -1.5083075, z: 1.511172, w: -0.9786327}
        outSlope: {x: 0.97963154, y: -1.5083075, z: 1.511172, w: -0.9786327}
        tangentMode: 0
        weightedMode: 0
        inWeight: {x: 0.33333334, y: 0.33333334, z: 0.33333334, w: 0.33333334}
        outWeight: {x: 0.33333334, y: 0.33333334, z: 0.33333334, w: 0.33333334}
      - serializedVersion: 3
        time: 0.6
        value: {x: 0.52074647, y: 0.5108694, z: 0.6289125, w: 0.26889524}
        inSlope: {x: 0.26951465, y: -0.6194012, z: 0.53256786, w: -0.5863882}
        outSlope: {x: 0.26951465, y: -0.6194012, z: 0.53256786, w: -0.5863882}
        tangentMode: 0
        weightedMode: 0
        inWeight: {x: 0.33333334, y: 0.33333334, z: 0.33333334, w: 0.33333334}
        outWeight: {x: 0.33333334, y: 0.33333334, z: 0.33333334, w: 0.33333334}
      - serializedVersion: 3
        time: 0.70000005
        value: {x: 0.5605004, y: 0.416196, z: 0.68077904, w: 0.22172076}
        inSlope: {x: 0.5880762, y: -1.4606271, z: 0.50676143, w: -0.338094}
        outSlope: {x: 0.5880762, y: -1.4606271, z: 0.50676143, w: -0.338094}
        tangentMode: 0
        weightedMode: 0
        inWeight: {x: 0.33333334, y: 0.33333334, z: 0.33333334, w: 0.33333334}
        outWeight: {x: 0.33333334, y: 0.33333334, z: 0.33333334, w: 0.33333334}
      - serializedVersion: 3
        time: 0.8333334
        value: {x: 0.6446116, y: 0.1541671, z: 0.72385067, w: 0.19169934}
        inSlope: {x: 0.515357, y: -2.207323, z: 0.054971047, w: -0.15691283}
        outSlope: {x: 0.515357, y: -2.207323, z: 0.054971047, w: -0.15691283}
        tangentMode: 0
        weightedMode: 0
        inWeight: {x: 0.33333334, y: 0.33333334, z: 0.33333334, w: 0.33333334}
        outWeight: {x: 0.33333334, y: 0.33333334, z: 0.33333334, w: 0.33333334}
      - serializedVersion: 3
        time: 1
        value: {x: 0.68487066, y: -0.1390807, z: 0.6938403, w: 0.17376538}
        inSlope: {x: 0.04304588, y: -0.9431777, z: -0.20843434, w: -0.052307747}
        outSlope: {x: 0.04304588, y: -0.9431777, z: -0.20843434, w: -0.052307747}
        tangentMode: 0
        weightedMode: 0
        inWeight: {x: 0.33333334, y: 0.33333334, z: 0.33333334, w: 0.33333334}
        outWeight: {x: 0.33333334, y: 0.33333334, z: 0.33333334, w: 0.33333334}
      - serializedVersion: 3
        time: 1.0666667
        value: {x: 0.68586326, y: -0.17202254, z: 0.68586314, w: 0.17202257}
        inSlope: {x: 0.005727416, y: -0.25694737, z: -0.06522781, w: -0.012874168}
        outSlope: {x: 0.005727416, y: -0.25694737, z: -0.06522781, w: -0.012874168}
        tangentMode: 0
        weightedMode: 0
        inWeight: {x: 0.33333334, y: 0.33333334, z: 0.33333334, w: 0.33333334}
        outWeight: {x: 0.33333334, y: 0.33333334, z: 0.33333334, w: 0.33333334}
      m_PreInfinity: 2
      m_PostInfinity: 2
      m_RotationOrder: 4
    path: KayKit Animated Character/Body/armLeft
  - curve:
      serializedVersion: 2
      m_Curve:
      - serializedVersion: 3
        time: 0
        value: {x: 0.60661685, y: 0.6066168, z: -0.36334014, w: 0.36334005}
        inSlope: {x: 0.044104453, y: 0.00086009497, z: 0.05345821, w: -0.021849273}
        outSlope: {x: 0.044104453, y: 0.00086009497, z: 0.05345821, w: -0.021849273}
        tangentMode: 0
        weightedMode: 0
        inWeight: {x: 0.33333334, y: 0.33333334, z: 0.33333334, w: 0.33333334}
        outWeight: {x: 0.33333334, y: 0.33333334, z: 0.33333334, w: 0.33333334}
      - serializedVersion: 3
        time: 0.3
        value: {x: 0.635556, y: 0.631335, z: -0.23527075, w: 0.3770045}
        inSlope: {x: -0.16062768, y: 0.23954186, z: 0.79760474, w: 0.36137763}
        outSlope: {x: -0.16062768, y: 0.23954186, z: 0.79760474, w: 0.36137763}
        tangentMode: 0
        weightedMode: 0
        inWeight: {x: 0.33333334, y: 0.33333334, z: 0.33333334, w: 0.33333334}
        outWeight: {x: 0.33333334, y: 0.33333334, z: 0.33333334, w: 0.33333334}
      - serializedVersion: 3
        time: 0.36666667
        value: {x: 0.6144726, y: 0.6502875, z: -0.17741494, w: 0.40996775}
        inSlope: {x: -0.50652957, y: 0.32348233, z: 0.93468195, w: 0.6394706}
        outSlope: {x: -0.50652957, y: 0.32348233, z: 0.93468195, w: 0.6394706}
        tangentMode: 0
        weightedMode: 0
        inWeight: {x: 0.33333334, y: 0.33333334, z: 0.33333334, w: 0.33333334}
        outWeight: {x: 0.33333334, y: 0.33333334, z: 0.33333334, w: 0.33333334}
      - serializedVersion: 3
        time: 0.40000004
        value: {x: 0.59411544, y: 0.6616537, z: -0.14517595, w: 0.4337801}
        inSlope: {x: -2.414732, y: 1.4607515, z: 0.8794329, w: 0.90565836}
        outSlope: {x: -2.414732, y: 1.4607515, z: 0.8794329, w: 0.90565836}
        tangentMode: 0
        weightedMode: 0
        inWeight: {x: 0.33333334, y: 0.33333334, z: 0.33333334, w: 0.33333334}
        outWeight: {x: 0.33333334, y: 0.33333334, z: 0.33333334, w: 0.33333334}
      - serializedVersion: 3
        time: 0.43333337
        value: {x: 0.4534905, y: 0.74767095, z: -0.11878605, w: 0.470345}
        inSlope: {x: -6.2122355, y: 2.8576605, z: 0.7317622, w: 0.72038287}
        outSlope: {x: -6.2122355, y: 2.8576605, z: 0.7317622, w: 0.72038287}
        tangentMode: 0
        weightedMode: 0
        inWeight: {x: 0.33333334, y: 0.33333334, z: 0.33333334, w: 0.33333334}
        outWeight: {x: 0.33333334, y: 0.33333334, z: 0.33333334, w: 0.33333334}
      - serializedVersion: 3
        time: 0.4666667
        value: {x: 0.17996643, y: 0.8521644, z: -0.096391805, w: 0.48180562}
        inSlope: {x: -6.2958975, y: 1.9569392, z: 0.50674945, w: -0.011305228}
        outSlope: {x: -6.2958975, y: 1.9569392, z: 0.50674945, w: -0.011305228}
        tangentMode: 0
        weightedMode: 0
        inWeight: {x: 0.33333334, y: 0.33333334, z: 0.33333334, w: 0.33333334}
        outWeight: {x: 0.33333334, y: 0.33333334, z: 0.33333334, w: 0.33333334}
      - serializedVersion: 3
        time: 0.5
        value: {x: 0.033764124, y: 0.87813354, z: -0.085002765, w: 0.46959132}
        inSlope: {x: -1.7166946, y: 0.34232447, z: 0.10328985, w: -0.1580355}
        outSlope: {x: -1.7166946, y: 0.34232447, z: 0.10328985, w: -0.1580355}
        tangentMode: 0
        weightedMode: 0
        inWeight: {x: 0.33333334, y: 0.33333334, z: 0.33333334, w: 0.33333334}
        outWeight: {x: 0.33333334, y: 0.33333334, z: 0.33333334, w: 0.33333334}
      - serializedVersion: 3
        time: 0.53333336
        value: {x: 0.0655203, y: 0.874986, z: -0.08950583, w: 0.47126994}
        inSlope: {x: 1.638916, y: -0.22218506, z: -0.2668342, w: 0.049943585}
        outSlope: {x: 1.638916, y: -0.22218506, z: -0.2668342, w: 0.049943585}
        tangentMode: 0
        weightedMode: 0
        inWeight: {x: 0.33333334, y: 0.33333334, z: 0.33333334, w: 0.33333334}
        outWeight: {x: 0.33333334, y: 0.33333334, z: 0.33333334, w: 0.33333334}
      - serializedVersion: 3
        time: 0.6
        value: {x: 0.23820493, y: 0.84083223, z: -0.12450309, w: 0.4698495}
        inSlope: {x: 2.676998, y: -0.77354276, z: -0.7876811, w: -0.16155788}
        outSlope: {x: 2.676998, y: -0.77354276, z: -0.7876811, w: -0.16155788}
        tangentMode: 0
        weightedMode: 0
        inWeight: {x: 0.33333334, y: 0.33333334, z: 0.33333334, w: 0.33333334}
        outWeight: {x: 0.33333334, y: 0.33333334, z: 0.33333334, w: 0.33333334}
      - serializedVersion: 3
        time: 0.73333335
        value: {x: 0.48042625, y: 0.7276205, z: -0.24452218, w: 0.42422628}
        inSlope: {x: 1.1609224, y: -0.7843191, z: -0.7396941, w: -0.37895638}
        outSlope: {x: 1.1609224, y: -0.7843191, z: -0.7396941, w: -0.37895638}
        tangentMode: 0
        weightedMode: 0
        inWeight: {x: 0.33333334, y: 0.33333334, z: 0.33333334, w: 0.33333334}
        outWeight: {x: 0.33333334, y: 0.33333334, z: 0.33333334, w: 0.33333334}
      - serializedVersion: 3
        time: 0.9333334
        value: {x: 0.59683716, y: 0.6220689, z: -0.34426785, w: 0.37188086}
        inSlope: {x: 0.19365636, y: -0.25729805, z: -0.28073072, w: -0.1375374}
        outSlope: {x: 0.19365636, y: -0.25729805, z: -0.28073072, w: -0.1375374}
        tangentMode: 0
        weightedMode: 0
        inWeight: {x: 0.33333334, y: 0.33333334, z: 0.33333334, w: 0.33333334}
        outWeight: {x: 0.33333334, y: 0.33333334, z: 0.33333334, w: 0.33333334}
      - serializedVersion: 3
        time: 1.0666667
        value: {x: 0.60661685, y: 0.6066168, z: -0.36334014, w: 0.36334005}
        inSlope: {x: 0.014117373, y: -0.03992919, z: -0.053058617, w: -0.009756098}
        outSlope: {x: 0.014117373, y: -0.03992919, z: -0.053058617, w: -0.009756098}
        tangentMode: 0
        weightedMode: 0
        inWeight: {x: 0.33333334, y: 0.33333334, z: 0.33333334, w: 0.33333334}
        outWeight: {x: 0.33333334, y: 0.33333334, z: 0.33333334, w: 0.33333334}
      m_PreInfinity: 2
      m_PostInfinity: 2
      m_RotationOrder: 4
    path: KayKit Animated Character/Body/armLeft/handSlotLeft
  - curve:
      serializedVersion: 2
      m_Curve:
      - serializedVersion: 3
        time: 0
        value: {x: 0.6858632, y: 0.1720227, z: 0.685863, w: -0.17202275}
        inSlope: {x: 0.042017695, y: 0.1964262, z: 0.023224352, w: 0.4831342}
        outSlope: {x: 0.042017695, y: 0.1964262, z: 0.023224352, w: 0.4831342}
        tangentMode: 0
        weightedMode: 0
        inWeight: {x: 0.33333334, y: 0.33333334, z: 0.33333334, w: 0.33333334}
        outWeight: {x: 0.33333334, y: 0.33333334, z: 0.33333334, w: 0.33333334}
      - serializedVersion: 3
        time: 0.06666667
        value: {x: 0.6901223, y: 0.19704282, z: 0.6876989, w: -0.1094336}
        inSlope: {x: 0.05723744, y: 0.7077345, z: -0.012921089, w: 1.8286599}
        outSlope: {x: 0.05723744, y: 0.7077345, z: -0.012921089, w: 1.8286599}
        tangentMode: 0
        weightedMode: 0
        inWeight: {x: 0.33333334, y: 0.33333334, z: 0.33333334, w: 0.33333334}
        outWeight: {x: 0.33333334, y: 0.33333334, z: 0.33333334, w: 0.33333334}
      - serializedVersion: 3
        time: 0.16666667
        value: {x: 0.66714454, y: 0.3022012, z: 0.6534991, w: 0.191132}
        inSlope: {x: -0.7731457, y: 1.1692028, z: -0.9110514, w: 3.8167257}
        outSlope: {x: -0.7731457, y: 1.1692028, z: -0.9110514, w: 3.8167257}
        tangentMode: 0
        weightedMode: 0
        inWeight: {x: 0.33333334, y: 0.33333334, z: 0.33333334, w: 0.33333334}
        outWeight: {x: 0.33333334, y: 0.33333334, z: 0.33333334, w: 0.33333334}
      - serializedVersion: 3
        time: 0.20000002
        value: {x: 0.6336723, y: 0.34014237, z: 0.615339, w: 0.32267708}
        inSlope: {x: -1.2068169, y: 1.0294526, z: -1.3415906, w: 3.8431592}
        outSlope: {x: -1.2068169, y: 1.0294526, z: -1.3415906, w: 3.8431592}
        tangentMode: 0
        weightedMode: 0
        inWeight: {x: 0.33333334, y: 0.33333334, z: 0.33333334, w: 0.33333334}
        outWeight: {x: 0.33333334, y: 0.33333334, z: 0.33333334, w: 0.33333334}
      - serializedVersion: 3
        time: 0.26666668
        value: {x: 0.5332319, y: 0.39184174, z: 0.5071191, w: 0.55222636}
        inSlope: {x: -1.5685036, y: 0.4975096, z: -1.6586437, w: 2.7612052}
        outSlope: {x: -1.5685036, y: 0.4975096, z: -1.6586437, w: 2.7612052}
        tangentMode: 0
        weightedMode: 0
        inWeight: {x: 0.33333334, y: 0.33333334, z: 0.33333334, w: 0.33333334}
        outWeight: {x: 0.33333334, y: 0.33333334, z: 0.33333334, w: 0.33333334}
      - serializedVersion: 3
        time: 0.36666667
        value: {x: 0.413353, y: 0.4122221, z: 0.38213634, w: 0.7163687}
        inSlope: {x: -0.55460787, y: 0.04330426, z: -0.57306194, w: 0.6238853}
        outSlope: {x: -0.55460787, y: 0.04330426, z: -0.57306194, w: 0.6238853}
        tangentMode: 0
        weightedMode: 0
        inWeight: {x: 0.33333334, y: 0.33333334, z: 0.33333334, w: 0.33333334}
        outWeight: {x: 0.33333334, y: 0.33333334, z: 0.33333334, w: 0.33333334}
      - serializedVersion: 3
        time: 0.40000004
        value: {x: 0.40361655, y: 0.41278782, z: 0.37209553, w: 0.7268045}
        inSlope: {x: 0.089196995, y: 0.33058497, z: 0.6824824, w: -0.6527095}
        outSlope: {x: 0.089196995, y: 0.33058497, z: 0.6824824, w: -0.6527095}
        tangentMode: 0
        weightedMode: 0
        inWeight: {x: 0.33333334, y: 0.33333334, z: 0.33333334, w: 0.33333334}
        outWeight: {x: 0.33333334, y: 0.33333334, z: 0.33333334, w: 0.33333334}
      - serializedVersion: 3
        time: 0.43333337
        value: {x: 0.41929945, y: 0.43426108, z: 0.42763516, w: 0.6728547}
        inSlope: {x: 0.67907053, y: 0.7126938, z: 2.4583483, w: -2.6952376}
        outSlope: {x: 0.67907053, y: 0.7126938, z: 2.4583483, w: -2.6952376}
        tangentMode: 0
        weightedMode: 0
        inWeight: {x: 0.33333334, y: 0.33333334, z: 0.33333334, w: 0.33333334}
        outWeight: {x: 0.33333334, y: 0.33333334, z: 0.33333334, w: 0.33333334}
      - serializedVersion: 3
        time: 0.4666667
        value: {x: 0.4488879, y: 0.46030074, z: 0.5359854, w: 0.547122}
        inSlope: {x: 0.8918278, y: 0.18650858, z: 2.8350053, w: -3.536976}
        outSlope: {x: 0.8918278, y: 0.18650858, z: 2.8350053, w: -3.536976}
        tangentMode: 0
        weightedMode: 0
        inWeight: {x: 0.33333334, y: 0.33333334, z: 0.33333334, w: 0.33333334}
        outWeight: {x: 0.33333334, y: 0.33333334, z: 0.33333334, w: 0.33333334}
      - serializedVersion: 3
        time: 0.5
        value: {x: 0.4787546, y: 0.446695, z: 0.61663544, w: 0.43705642}
        inSlope: {x: 0.8441266, y: -0.7868999, z: 1.7657713, w: -2.3751626}
        outSlope: {x: 0.8441266, y: -0.7868999, z: 1.7657713, w: -2.3751626}
        tangentMode: 0
        weightedMode: 0
        inWeight: {x: 0.33333334, y: 0.33333334, z: 0.33333334, w: 0.33333334}
        outWeight: {x: 0.33333334, y: 0.33333334, z: 0.33333334, w: 0.33333334}
      - serializedVersion: 3
        time: 0.53333336
        value: {x: 0.505163, y: 0.40784073, z: 0.65370345, w: 0.38877788}
        inSlope: {x: 0.6694301, y: -1.1022091, z: 0.85179913, w: -1.0796405}
        outSlope: {x: 0.6694301, y: -1.1022091, z: 0.85179913, w: -1.0796405}
        tangentMode: 0
        weightedMode: 0
        inWeight: {x: 0.33333334, y: 0.33333334, z: 0.33333334, w: 0.33333334}
        outWeight: {x: 0.33333334, y: 0.33333334, z: 0.33333334, w: 0.33333334}
      - serializedVersion: 3
        time: 0.6333334
        value: {x: 0.5528731, y: 0.3218083, z: 0.69008344, w: 0.33846083}
        inSlope: {x: 0.47030753, y: -0.6084797, z: 0.19491525, w: -0.5943482}
        outSlope: {x: 0.47030753, y: -0.6084797, z: 0.19491525, w: -0.5943482}
        tangentMode: 0
        weightedMode: 0
        inWeight: {x: 0.33333334, y: 0.33333334, z: 0.33333334, w: 0.33333334}
        outWeight: {x: 0.33333334, y: 0.33333334, z: 0.33333334, w: 0.33333334}
      - serializedVersion: 3
        time: 0.8000001
        value: {x: 0.6420698, y: 0.23999387, z: 0.7164328, w: 0.12989716}
        inSlope: {x: 0.46242267, y: -0.43274492, z: 0.030732717, w: -1.6608845}
        outSlope: {x: 0.46242267, y: -0.43274492, z: 0.030732717, w: -1.6608845}
        tangentMode: 0
        weightedMode: 0
        inWeight: {x: 0.33333334, y: 0.33333334, z: 0.33333334, w: 0.33333334}
        outWeight: {x: 0.33333334, y: 0.33333334, z: 0.33333334, w: 0.33333334}
      - serializedVersion: 3
        time: 0.9666667
        value: {x: 0.68367326, y: 0.18309939, z: 0.6965328, w: -0.117930345}
        inSlope: {x: 0.068128176, y: -0.21334825, z: -0.17488466, w: -1.0118146}
        outSlope: {x: 0.068128176, y: -0.21334825, z: -0.17488466, w: -1.0118146}
        tangentMode: 0
        weightedMode: 0
        inWeight: {x: 0.33333334, y: 0.33333334, z: 0.33333334, w: 0.33333334}
        outWeight: {x: 0.33333334, y: 0.33333334, z: 0.33333334, w: 0.33333334}
      - serializedVersion: 3
        time: 1.0666667
        value: {x: 0.6858632, y: 0.1720227, z: 0.685863, w: -0.17202275}
        inSlope: {x: 0.0037997998, y: -0.038523264, z: -0.042021316, w: -0.19491184}
        outSlope: {x: 0.0037997998, y: -0.038523264, z: -0.042021316, w: -0.19491184}
        tangentMode: 0
        weightedMode: 0
        inWeight: {x: 0.33333334, y: 0.33333334, z: 0.33333334, w: 0.33333334}
        outWeight: {x: 0.33333334, y: 0.33333334, z: 0.33333334, w: 0.33333334}
      m_PreInfinity: 2
      m_PostInfinity: 2
      m_RotationOrder: 4
    path: KayKit Animated Character/Body/armRight
  - curve:
      serializedVersion: 2
      m_Curve:
      - serializedVersion: 3
        time: 0
        value: {x: 0.36333996, y: 0.3633402, z: -0.6066169, w: 0.6066169}
        inSlope: {x: 0.090126686, y: 0.15660165, z: 0.022612808, w: -0.12652159}
        outSlope: {x: 0.090126686, y: 0.15660165, z: 0.022612808, w: -0.12652159}
        tangentMode: 0
        weightedMode: 0
        inWeight: {x: 0.33333334, y: 0.33333334, z: 0.33333334, w: 0.33333334}
        outWeight: {x: 0.33333334, y: 0.33333334, z: 0.33333334, w: 0.33333334}
      - serializedVersion: 3
        time: 0.10000001
        value: {x: 0.38565025, y: 0.40521714, z: -0.5991273, w: 0.57281715}
        inSlope: {x: 0.36455822, y: 0.7490922, z: 0.16522676, w: -0.609743}
        outSlope: {x: 0.36455822, y: 0.7490922, z: 0.16522676, w: -0.609743}
        tangentMode: 0
        weightedMode: 0
        inWeight: {x: 0.33333334, y: 0.33333334, z: 0.33333334, w: 0.33333334}
        outWeight: {x: 0.33333334, y: 0.33333334, z: 0.33333334, w: 0.33333334}
      - serializedVersion: 3
        time: 0.26666668
        value: {x: 0.43662307, y: 0.56737447, z: -0.54089355, w: 0.44145307}
        inSlope: {x: 0.07172675, y: 1.0026903, z: 0.51039493, w: -0.73008883}
        outSlope: {x: 0.07172675, y: 1.0026903, z: 0.51039493, w: -0.73008883}
        tangentMode: 0
        weightedMode: 0
        inWeight: {x: 0.33333334, y: 0.33333334, z: 0.33333334, w: 0.33333334}
        outWeight: {x: 0.33333334, y: 0.33333334, z: 0.33333334, w: 0.33333334}
      - serializedVersion: 3
        time: 0.36666667
        value: {x: 0.4186539, y: 0.6594688, z: -0.48504522, w: 0.3931424}
        inSlope: {x: -0.48588508, y: 0.8151534, z: 0.58475846, w: -0.12921052}
        outSlope: {x: -0.48588508, y: 0.8151534, z: 0.58475846, w: -0.12921052}
        tangentMode: 0
        weightedMode: 0
        inWeight: {x: 0.33333334, y: 0.33333334, z: 0.33333334, w: 0.33333334}
        outWeight: {x: 0.33333334, y: 0.33333334, z: 0.33333334, w: 0.33333334}
      - serializedVersion: 3
        time: 0.40000004
        value: {x: 0.3985371, y: 0.68529147, z: -0.46538433, w: 0.39365113}
        inSlope: {x: -1.3150462, y: 0.73417395, z: 1.8759618, w: 1.7368644}
        outSlope: {x: -1.3150462, y: 0.73417395, z: 1.8759618, w: 1.7368644}
        tangentMode: 0
        weightedMode: 0
        inWeight: {x: 0.33333334, y: 0.33333334, z: 0.33333334, w: 0.33333334}
        outWeight: {x: 0.33333334, y: 0.33333334, z: 0.33333334, w: 0.33333334}
      - serializedVersion: 3
        time: 0.43333337
        value: {x: 0.33098415, y: 0.7084138, z: -0.3599811, w: 0.50893337}
        inSlope: {x: -2.8887854, y: -0.109181106, z: 4.649968, w: 4.419525}
        outSlope: {x: -2.8887854, y: -0.109181106, z: 4.649968, w: 4.419525}
        tangentMode: 0
        weightedMode: 0
        inWeight: {x: 0.33333334, y: 0.33333334, z: 0.33333334, w: 0.33333334}
        outWeight: {x: 0.33333334, y: 0.33333334, z: 0.33333334, w: 0.33333334}
      - serializedVersion: 3
        time: 0.4666667
        value: {x: 0.20595142, y: 0.6780127, z: -0.15538646, w: 0.6882861}
        inSlope: {x: -2.9050536, y: -1.0679936, z: 4.6942234, w: 3.7194328}
        outSlope: {x: -2.9050536, y: -1.0679936, z: 4.6942234, w: 3.7194328}
        tangentMode: 0
        weightedMode: 0
        inWeight: {x: 0.33333334, y: 0.33333334, z: 0.33333334, w: 0.33333334}
        outWeight: {x: 0.33333334, y: 0.33333334, z: 0.33333334, w: 0.33333334}
      - serializedVersion: 3
        time: 0.5
        value: {x: 0.13731398, y: 0.63721424, z: -0.04703298, w: 0.7568955}
        inSlope: {x: -0.6425976, y: -0.62250376, z: 1.3185397, w: 0.9376262}
        outSlope: {x: -0.6425976, y: -0.62250376, z: 1.3185397, w: 0.9376262}
        tangentMode: 0
        weightedMode: 0
        inWeight: {x: 0.33333334, y: 0.33333334, z: 0.33333334, w: 0.33333334}
        outWeight: {x: 0.33333334, y: 0.33333334, z: 0.33333334, w: 0.33333334}
      - serializedVersion: 3
        time: 0.53333336
        value: {x: 0.16311167, y: 0.6365125, z: -0.06748393, w: 0.7507945}
        inSlope: {x: 1.3026586, y: -0.09761176, z: -1.058449, w: -0.3497973}
        outSlope: {x: 1.3026586, y: -0.09761176, z: -1.058449, w: -0.3497973}
        tangentMode: 0
        weightedMode: 0
        inWeight: {x: 0.33333334, y: 0.33333334, z: 0.33333334, w: 0.33333334}
        outWeight: {x: 0.33333334, y: 0.33333334, z: 0.33333334, w: 0.33333334}
      - serializedVersion: 3
        time: 0.5666667
        value: {x: 0.22415796, y: 0.6307068, z: -0.117596306, w: 0.73357564}
        inSlope: {x: 1.98476, y: -0.30827892, z: -1.691978, w: -0.64670134}
        outSlope: {x: 1.98476, y: -0.30827892, z: -1.691978, w: -0.64670134}
        tangentMode: 0
        weightedMode: 0
        inWeight: {x: 0.33333334, y: 0.33333334, z: 0.33333334, w: 0.33333334}
        outWeight: {x: 0.33333334, y: 0.33333334, z: 0.33333334, w: 0.33333334}
      - serializedVersion: 3
        time: 0.6333334
        value: {x: 0.35275522, y: 0.5951204, z: -0.24130899, w: 0.6805626}
        inSlope: {x: 1.4222505, y: -0.66442436, z: -1.7215521, w: -0.7351148}
        outSlope: {x: 1.4222505, y: -0.66442436, z: -1.7215521, w: -0.7351148}
        tangentMode: 0
        weightedMode: 0
        inWeight: {x: 0.33333334, y: 0.33333334, z: 0.33333334, w: 0.33333334}
        outWeight: {x: 0.33333334, y: 0.33333334, z: 0.33333334, w: 0.33333334}
      - serializedVersion: 3
        time: 0.7666667
        value: {x: 0.4376351, y: 0.4959379, z: -0.43025187, w: 0.6143325}
        inSlope: {x: 0.096154876, y: -0.73755455, z: -1.1602726, w: -0.27978188}
        outSlope: {x: 0.096154876, y: -0.73755455, z: -1.1602726, w: -0.27978188}
        tangentMode: 0
        weightedMode: 0
        inWeight: {x: 0.33333334, y: 0.33333334, z: 0.33333334, w: 0.33333334}
        outWeight: {x: 0.33333334, y: 0.33333334, z: 0.33333334, w: 0.33333334}
      - serializedVersion: 3
        time: 1.0333334
        value: {x: 0.366149, y: 0.36542955, z: -0.6043498, w: 0.6059352}
        inSlope: {x: -0.15471984, y: -0.122303605, z: -0.13467349, w: 0.03445024}
        outSlope: {x: -0.15471984, y: -0.122303605, z: -0.13467349, w: 0.03445024}
        tangentMode: 0
        weightedMode: 0
        inWeight: {x: 0.33333334, y: 0.33333334, z: 0.33333334, w: 0.33333334}
        outWeight: {x: 0.33333334, y: 0.33333334, z: 0.33333334, w: 0.33333334}
      - serializedVersion: 3
        time: 1.0666667
        value: {x: 0.36333996, y: 0.36334023, z: -0.60661685, w: 0.6066168}
        inSlope: {x: -0.08427151, y: -0.06267971, z: -0.06801195, w: 0.020447392}
        outSlope: {x: -0.08427151, y: -0.06267971, z: -0.06801195, w: 0.020447392}
        tangentMode: 0
        weightedMode: 0
        inWeight: {x: 0.33333334, y: 0.33333334, z: 0.33333334, w: 0.33333334}
        outWeight: {x: 0.33333334, y: 0.33333334, z: 0.33333334, w: 0.33333334}
      m_PreInfinity: 2
      m_PostInfinity: 2
      m_RotationOrder: 4
    path: KayKit Animated Character/Body/armRight/handSlotRight
  m_CompressedRotationCurves: []
  m_EulerCurves: []
  m_PositionCurves:
  - curve:
      serializedVersion: 2
      m_Curve:
      - serializedVersion: 3
        time: 0
        value: {x: -0, y: 0, z: 0}
        inSlope: {x: 0, y: 0, z: 0}
        outSlope: {x: 0, y: 0, z: 0}
        tangentMode: 0
        weightedMode: 0
        inWeight: {x: 0.33333334, y: 0.33333334, z: 0.33333334}
        outWeight: {x: 0.33333334, y: 0.33333334, z: 0.33333334}
      - serializedVersion: 3
        time: 1.0666667
        value: {x: -0, y: 0, z: 0}
        inSlope: {x: 0, y: 0, z: 0}
        outSlope: {x: 0, y: 0, z: 0}
        tangentMode: 0
        weightedMode: 0
        inWeight: {x: 0.33333334, y: 0.33333334, z: 0.33333334}
        outWeight: {x: 0.33333334, y: 0.33333334, z: 0.33333334}
      m_PreInfinity: 2
      m_PostInfinity: 2
      m_RotationOrder: 4
    path: KayKit Animated Character
  - curve:
      serializedVersion: 2
      m_Curve:
      - serializedVersion: 3
        time: 0
        value: {x: -0, y: 0, z: 0}
        inSlope: {x: -0, y: -0, z: -0}
        outSlope: {x: -0, y: -0, z: -0}
        tangentMode: 0
        weightedMode: 0
        inWeight: {x: 0.33333334, y: 0.33333334, z: 0.33333334}
        outWeight: {x: 0.33333334, y: 0.33333334, z: 0.33333334}
      - serializedVersion: 3
        time: 0.23333333
        value: {x: -0, y: 0, z: 0}
        inSlope: {x: -0, y: -0, z: -0}
        outSlope: {x: -0, y: 0.9831911, z: -0.009989036}
        tangentMode: 0
        weightedMode: 0
        inWeight: {x: 0.33333334, y: 0.33333334, z: 0.33333334}
        outWeight: {x: 0.33333334, y: 0.33333334, z: 0.33333334}
      - serializedVersion: 3
        time: 0.26666668
        value: {x: -0, y: 0.032773048, z: -0.00033296802}
        inSlope: {x: -0, y: 0.9831911, z: -0.009989036}
        outSlope: {x: -0, y: 2.3445334, z: -0.06992255}
        tangentMode: 0
        weightedMode: 0
        inWeight: {x: 0.33333334, y: 0.33333334, z: 0.33333334}
        outWeight: {x: 0.33333334, y: 0.33333334, z: 0.33333334}
      - serializedVersion: 3
        time: 0.3
        value: {x: -0, y: 0.110924155, z: -0.0026637197}
        inSlope: {x: -0, y: 2.3445334, z: -0.06992255}
        outSlope: {x: -0, y: 2.7983148, z: -0.1897893}
        tangentMode: 0
        weightedMode: 0
        inWeight: {x: 0.33333334, y: 0.33333334, z: 0.33333334}
        outWeight: {x: 0.33333334, y: 0.33333334, z: 0.33333334}
      - serializedVersion: 3
        time: 0.33333334
        value: {x: -0, y: 0.20420131, z: -0.008990029}
        inSlope: {x: -0, y: 2.7983148, z: -0.1897893}
        outSlope: {x: -0, y: 2.3445334, z: -0.3695891}
        tangentMode: 0
        weightedMode: 0
        inWeight: {x: 0.33333334, y: 0.33333334, z: 0.33333334}
        outWeight: {x: 0.33333334, y: 0.33333334, z: 0.33333334}
      - serializedVersion: 3
        time: 0.36666667
        value: {x: -0, y: 0.28235242, z: -0.021309664}
        inSlope: {x: -0, y: 2.3445334, z: -0.3695891}
        outSlope: {x: -0, y: 0.9831915, z: -0.609322}
        tangentMode: 0
        weightedMode: 0
        inWeight: {x: 0.33333334, y: 0.33333334, z: 0.33333334}
        outWeight: {x: 0.33333334, y: 0.33333334, z: 0.33333334}
      - serializedVersion: 3
        time: 0.4
        value: {x: -0, y: 0.31512547, z: -0.041620396}
        inSlope: {x: -0, y: 0.9831915, z: -0.609322}
        outSlope: {x: -0, y: -0.00000089406973, z: -2.3307393}
        tangentMode: 0
        weightedMode: 0
        inWeight: {x: 0.33333334, y: 0.33333334, z: 0.33333334}
        outWeight: {x: 0.33333334, y: 0.33333334, z: 0.33333334}
      - serializedVersion: 3
        time: 0.43333334
        value: {x: -0, y: 0.31512544, z: -0.1193117}
        inSlope: {x: -0, y: -0.00000089406973, z: -2.3307393}
        outSlope: {x: -0, y: -0, z: -3.5436754}
        tangentMode: 0
        weightedMode: 0
        inWeight: {x: 0.33333334, y: 0.33333334, z: 0.33333334}
        outWeight: {x: 0.33333334, y: 0.33333334, z: 0.33333334}
      - serializedVersion: 3
        time: 0.46666667
        value: {x: -0, y: 0.31512544, z: -0.23743421}
        inSlope: {x: -0, y: -0, z: -3.5436754}
        outSlope: {x: -0, y: -0.00000089406973, z: -1.8312953}
        tangentMode: 0
        weightedMode: 0
        inWeight: {x: 0.33333334, y: 0.33333334, z: 0.33333334}
        outWeight: {x: 0.33333334, y: 0.33333334, z: 0.33333334}
      - serializedVersion: 3
        time: 0.5
        value: {x: -0, y: 0.3151254, z: -0.29847738}
        inSlope: {x: -0, y: -0.00000089406973, z: -1.8312953}
        outSlope: {x: -0, y: -1.4771485, z: 0.005463655}
        tangentMode: 0
        weightedMode: 0
        inWeight: {x: 0.33333334, y: 0.33333334, z: 0.33333334}
        outWeight: {x: 0.33333334, y: 0.33333334, z: 0.33333334}
      - serializedVersion: 3
        time: 0.53333336
        value: {x: -0, y: 0.26588708, z: -0.29829526}
        inSlope: {x: -0, y: -1.4771485, z: 0.005463655}
        outSlope: {x: -0, y: -3.2497349, z: 0.038238503}
        tangentMode: 0
        weightedMode: 0
        inWeight: {x: 0.33333334, y: 0.33333334, z: 0.33333334}
        outWeight: {x: 0.33333334, y: 0.33333334, z: 0.33333334}
      - serializedVersion: 3
        time: 0.6
        value: {x: -0, y: 0.049238276, z: -0.29356092}
        inSlope: {x: -0, y: -3.2497296, z: 0.103791565}
        outSlope: {x: -0, y: -1.4771512, z: 0.20211895}
        tangentMode: 0
        weightedMode: 0
        inWeight: {x: 0.33333334, y: 0.33333334, z: 0.33333334}
        outWeight: {x: 0.33333334, y: 0.33333334, z: 0.33333334}
      - serializedVersion: 3
        time: 0.6333333
        value: {x: -0, y: -0.000000046729504, z: -0.28682363}
        inSlope: {x: -0, y: -1.4771512, z: 0.20211895}
        outSlope: {x: -0, y: 0.00000010783727, z: 0.36833316}
        tangentMode: 0
        weightedMode: 0
        inWeight: {x: 0.33333334, y: 0.33333334, z: 0.33333334}
        outWeight: {x: 0.33333334, y: 0.33333334, z: 0.33333334}
      - serializedVersion: 3
        time: 0.6666667
        value: {x: -0, y: -0.000000043134925, z: -0.27454585}
        inSlope: {x: -0, y: 0.00000010783727, z: 0.36833316}
        outSlope: {x: -0, y: 0.00000010783736, z: 0.5554565}
        tangentMode: 0
        weightedMode: 0
        inWeight: {x: 0.33333334, y: 0.33333334, z: 0.33333334}
        outWeight: {x: 0.33333334, y: 0.33333334, z: 0.33333334}
      - serializedVersion: 3
        time: 0.73333335
        value: {x: -0, y: -0.00000003594577, z: -0.2325343}
        inSlope: {x: -0, y: 0.00000010783727, z: 0.7048898}
        outSlope: {x: -0, y: 0.00000010783736, z: 0.81663555}
        tangentMode: 0
        weightedMode: 0
        inWeight: {x: 0.33333334, y: 0.33333334, z: 0.33333334}
        outWeight: {x: 0.33333334, y: 0.33333334, z: 0.33333334}
      - serializedVersion: 3
        time: 0.9
        value: {x: -0, y: -0.000000017972889, z: -0.08430695}
        inSlope: {x: -0, y: 0.00000010783731, z: 0.886715}
        outSlope: {x: -0, y: 0.0000001078373, z: 0.81000787}
        tangentMode: 0
        weightedMode: 0
        inWeight: {x: 0.33333334, y: 0.33333334, z: 0.33333334}
        outWeight: {x: 0.33333334, y: 0.33333334, z: 0.33333334}
      - serializedVersion: 3
        time: 0.93333334
        value: {x: -0, y: -0.000000014378309, z: -0.057306662}
        inSlope: {x: -0, y: 0.0000001078373, z: 0.81000787}
        outSlope: {x: -0, y: 0.00000010783734, z: 0.69561684}
        tangentMode: 0
        weightedMode: 0
        inWeight: {x: 0.33333334, y: 0.33333334, z: 0.33333334}
        outWeight: {x: 0.33333334, y: 0.33333334, z: 0.33333334}
      - serializedVersion: 3
        time: 0.96666664
        value: {x: -0, y: -0.000000010783735, z: -0.034119457}
        inSlope: {x: -0, y: 0.00000010783734, z: 0.69561684}
        outSlope: {x: -0, y: 0.000000107837316, z: 0.5435313}
        tangentMode: 0
        weightedMode: 0
        inWeight: {x: 0.33333334, y: 0.33333334, z: 0.33333334}
        outWeight: {x: 0.33333334, y: 0.33333334, z: 0.33333334}
      - serializedVersion: 3
        time: 1
        value: {x: -0, y: -0.0000000071891546, z: -0.016001731}
        inSlope: {x: -0, y: 0.000000107837316, z: 0.5435313}
        outSlope: {x: -0, y: 0.00000010783731, z: 0.35375687}
        tangentMode: 0
        weightedMode: 0
        inWeight: {x: 0.33333334, y: 0.33333334, z: 0.33333334}
        outWeight: {x: 0.33333334, y: 0.33333334, z: 0.33333334}
      - serializedVersion: 3
        time: 1.0333333
        value: {x: -0, y: -0.000000003594581, z: -0.0042098463}
        inSlope: {x: -0, y: 0.00000010783731, z: 0.35375687}
        outSlope: {x: -0, y: 0.00000010783715, z: 0.12629506}
        tangentMode: 0
        weightedMode: 0
        inWeight: {x: 0.33333334, y: 0.33333334, z: 0.33333334}
        outWeight: {x: 0.33333334, y: 0.33333334, z: 0.33333334}
      - serializedVersion: 3
        time: 1.0666667
        value: {x: -0, y: 0, z: 0}
        inSlope: {x: -0, y: 0.00000010783715, z: 0.12629506}
        outSlope: {x: -0, y: 0.00000010783715, z: 0.12629506}
        tangentMode: 0
        weightedMode: 0
        inWeight: {x: 0.33333334, y: 0.33333334, z: 0.33333334}
        outWeight: {x: 0.33333334, y: 0.33333334, z: 0.33333334}
      m_PreInfinity: 2
      m_PostInfinity: 2
      m_RotationOrder: 4
    path: KayKit Animated Character/Body
  - curve:
      serializedVersion: 2
      m_Curve:
      - serializedVersion: 3
        time: 0
        value: {x: -0, y: 0.7115979, z: 0}
        inSlope: {x: -0, y: -0, z: -0.000000011724685}
        outSlope: {x: -0, y: -0, z: -0.000000011724685}
        tangentMode: 0
        weightedMode: 0
        inWeight: {x: 0.33333334, y: 0.33333334, z: 0.33333334}
        outWeight: {x: 0.33333334, y: 0.33333334, z: 0.33333334}
      - serializedVersion: 3
        time: 0.23333333
        value: {x: -0, y: 0.7115979, z: -0.00000000273576}
        inSlope: {x: -0, y: -0, z: -0.000000011724687}
        outSlope: {x: -0, y: -0, z: -0.012847549}
        tangentMode: 0
        weightedMode: 0
        inWeight: {x: 0.33333334, y: 0.33333334, z: 0.33333334}
        outWeight: {x: 0.33333334, y: 0.33333334, z: 0.33333334}
      - serializedVersion: 3
        time: 0.26666668
        value: {x: -0, y: 0.7115979, z: -0.00042825454}
        inSlope: {x: -0, y: -0, z: -0.012847549}
        outSlope: {x: -0, y: -0, z: -0.030636305}
        tangentMode: 0
        weightedMode: 0
        inWeight: {x: 0.33333334, y: 0.33333334, z: 0.33333334}
        outWeight: {x: 0.33333334, y: 0.33333334, z: 0.33333334}
      - serializedVersion: 3
        time: 0.3
        value: {x: -0, y: 0.7115979, z: -0.0014494647}
        inSlope: {x: -0, y: -0, z: -0.030636305}
        outSlope: {x: -0, y: -0, z: -0.03656612}
        tangentMode: 0
        weightedMode: 0
        inWeight: {x: 0.33333334, y: 0.33333334, z: 0.33333334}
        outWeight: {x: 0.33333334, y: 0.33333334, z: 0.33333334}
      - serializedVersion: 3
        time: 0.33333334
        value: {x: -0, y: 0.7115979, z: -0.0026683353}
        inSlope: {x: -0, y: -0, z: -0.03656612}
        outSlope: {x: -0, y: -0, z: -0.03063662}
        tangentMode: 0
        weightedMode: 0
        inWeight: {x: 0.33333334, y: 0.33333334, z: 0.33333334}
        outWeight: {x: 0.33333334, y: 0.33333334, z: 0.33333334}
      - serializedVersion: 3
        time: 0.36666667
        value: {x: -0, y: 0.7115979, z: -0.003689556}
        inSlope: {x: -0, y: -0, z: -0.03063662}
        outSlope: {x: -0, y: -0, z: -0.012846706}
        tangentMode: 0
        weightedMode: 0
        inWeight: {x: 0.33333334, y: 0.33333334, z: 0.33333334}
        outWeight: {x: 0.33333334, y: 0.33333334, z: 0.33333334}
      - serializedVersion: 3
        time: 0.4
        value: {x: -0, y: 0.7115979, z: -0.0041177794}
        inSlope: {x: -0, y: -0, z: -0.012846706}
        outSlope: {x: -0, y: -0, z: 0.00026003437}
        tangentMode: 0
        weightedMode: 0
        inWeight: {x: 0.33333334, y: 0.33333334, z: 0.33333334}
        outWeight: {x: 0.33333334, y: 0.33333334, z: 0.33333334}
      - serializedVersion: 3
        time: 0.6666667
        value: {x: -0, y: 0.7115979, z: -0.004048437}
        inSlope: {x: -0, y: -0, z: 0.00026003484}
        outSlope: {x: -0, y: -0, z: 0.005791789}
        tangentMode: 0
        weightedMode: 0
        inWeight: {x: 0.33333334, y: 0.33333334, z: 0.33333334}
        outWeight: {x: 0.33333334, y: 0.33333334, z: 0.33333334}
      - serializedVersion: 3
        time: 0.7
        value: {x: -0, y: 0.7115979, z: -0.0038553774}
        inSlope: {x: -0, y: -0, z: 0.005791789}
        outSlope: {x: -0, y: -0, z: 0.008827589}
        tangentMode: 0
        weightedMode: 0
        inWeight: {x: 0.33333334, y: 0.33333334, z: 0.33333334}
        outWeight: {x: 0.33333334, y: 0.33333334, z: 0.33333334}
      - serializedVersion: 3
        time: 0.73333335
        value: {x: -0, y: 0.7115979, z: -0.0035611242}
        inSlope: {x: -0, y: -0, z: 0.008827589}
        outSlope: {x: -0, y: -0, z: 0.011189292}
        tangentMode: 0
        weightedMode: 0
        inWeight: {x: 0.33333334, y: 0.33333334, z: 0.33333334}
        outWeight: {x: 0.33333334, y: 0.33333334, z: 0.33333334}
      - serializedVersion: 3
        time: 0.8
        value: {x: -0, y: 0.7115979, z: -0.0027589276}
        inSlope: {x: -0, y: -0, z: 0.012876604}
        outSlope: {x: -0, y: -0, z: 0.013887597}
        tangentMode: 0
        weightedMode: 0
        inWeight: {x: 0.33333334, y: 0.33333334, z: 0.33333334}
        outWeight: {x: 0.33333334, y: 0.33333334, z: 0.33333334}
      - serializedVersion: 3
        time: 0.9
        value: {x: -0, y: 0.7115979, z: -0.0013588555}
        inSlope: {x: -0, y: -0, z: 0.013888491}
        outSlope: {x: -0, y: -0, z: 0.01287638}
        tangentMode: 0
        weightedMode: 0
        inWeight: {x: 0.33333334, y: 0.33333334, z: 0.33333334}
        outWeight: {x: 0.33333334, y: 0.33333334, z: 0.33333334}
      - serializedVersion: 3
        time: 0.93333334
        value: {x: -0, y: 0.7115979, z: -0.00092964247}
        inSlope: {x: -0, y: -0, z: 0.01287638}
        outSlope: {x: -0, y: -0, z: 0.011189348}
        tangentMode: 0
        weightedMode: 0
        inWeight: {x: 0.33333334, y: 0.33333334, z: 0.33333334}
        outWeight: {x: 0.33333334, y: 0.33333334, z: 0.33333334}
      - serializedVersion: 3
        time: 0.96666664
        value: {x: -0, y: 0.7115979, z: -0.00055666454}
        inSlope: {x: -0, y: -0, z: 0.011189348}
        outSlope: {x: -0, y: -0, z: 0.008827911}
        tangentMode: 0
        weightedMode: 0
        inWeight: {x: 0.33333334, y: 0.33333334, z: 0.33333334}
        outWeight: {x: 0.33333334, y: 0.33333334, z: 0.33333334}
      - serializedVersion: 3
        time: 1
        value: {x: -0, y: 0.7115979, z: -0.0002624006}
        inSlope: {x: -0, y: -0, z: 0.008827911}
        outSlope: {x: -0, y: -0, z: 0.0057915547}
        tangentMode: 0
        weightedMode: 0
        inWeight: {x: 0.33333334, y: 0.33333334, z: 0.33333334}
        outWeight: {x: 0.33333334, y: 0.33333334, z: 0.33333334}
      - serializedVersion: 3
        time: 1.0333333
        value: {x: -0, y: 0.7115979, z: -0.00006934896}
        inSlope: {x: -0, y: -0, z: 0.0057915547}
        outSlope: {x: -0, y: -0, z: 0.0020804633}
        tangentMode: 0
        weightedMode: 0
        inWeight: {x: 0.33333334, y: 0.33333334, z: 0.33333334}
        outWeight: {x: 0.33333334, y: 0.33333334, z: 0.33333334}
      - serializedVersion: 3
        time: 1.0666667
        value: {x: -0, y: 0.7115979, z: 0}
        inSlope: {x: -0, y: -0, z: 0.0020804633}
        outSlope: {x: -0, y: -0, z: 0.0020804633}
        tangentMode: 0
        weightedMode: 0
        inWeight: {x: 0.33333334, y: 0.33333334, z: 0.33333334}
        outWeight: {x: 0.33333334, y: 0.33333334, z: 0.33333334}
      m_PreInfinity: 2
      m_PostInfinity: 2
      m_RotationOrder: 4
    path: KayKit Animated Character/Body/Head
  - curve:
      serializedVersion: 2
      m_Curve:
      - serializedVersion: 3
        time: 0
        value: {x: -0.14, y: 0.69159794, z: 0}
        inSlope: {x: -0, y: -0.010914802, z: 0.046253677}
        outSlope: {x: -0, y: -0.010914802, z: 0.046253677}
        tangentMode: 0
        weightedMode: 0
        inWeight: {x: 0.33333334, y: 0.33333334, z: 0.33333334}
        outWeight: {x: 0.33333334, y: 0.33333334, z: 0.33333334}
      - serializedVersion: 3
        time: 0.033333335
        value: {x: -0.14, y: 0.6912341, z: 0.0015417894}
        inSlope: {x: -0, y: -0.010914802, z: 0.046253677}
        outSlope: {x: -0, y: -0.010914802, z: 0.12982897}
        tangentMode: 0
        weightedMode: 0
        inWeight: {x: 0.33333334, y: 0.33333334, z: 0.33333334}
        outWeight: {x: 0.33333334, y: 0.33333334, z: 0.33333334}
      - serializedVersion: 3
        time: 0.06666667
        value: {x: -0.14, y: 0.6908703, z: 0.005869422}
        inSlope: {x: -0, y: -0.010914802, z: 0.12982897}
        outSlope: {x: -0, y: -0.0109148035, z: 0.20000644}
        tangentMode: 0
        weightedMode: 0
        inWeight: {x: 0.33333334, y: 0.33333334, z: 0.33333334}
        outWeight: {x: 0.33333334, y: 0.33333334, z: 0.33333334}
      - serializedVersion: 3
        time: 0.1
        value: {x: -0.14, y: 0.69050646, z: 0.012536303}
        inSlope: {x: -0, y: -0.0109148035, z: 0.20000644}
        outSlope: {x: -0, y: -0.010914801, z: 0.2567859}
        tangentMode: 0
        weightedMode: 0
        inWeight: {x: 0.33333334, y: 0.33333334, z: 0.33333334}
        outWeight: {x: 0.33333334, y: 0.33333334, z: 0.33333334}
      - serializedVersion: 3
        time: 0.13333334
        value: {x: -0.14, y: 0.69014263, z: 0.021095835}
        inSlope: {x: -0, y: -0.010914801, z: 0.2567859}
        outSlope: {x: -0, y: -0.0109148035, z: 0.30016738}
        tangentMode: 0
        weightedMode: 0
        inWeight: {x: 0.33333334, y: 0.33333334, z: 0.33333334}
        outWeight: {x: 0.33333334, y: 0.33333334, z: 0.33333334}
      - serializedVersion: 3
        time: 0.16666667
        value: {x: -0.14, y: 0.6897788, z: 0.031101413}
        inSlope: {x: -0, y: -0.0109148035, z: 0.30016738}
        outSlope: {x: -0, y: -0.039727096, z: 0.33015066}
        tangentMode: 0
        weightedMode: 0
        inWeight: {x: 0.33333334, y: 0.33333334, z: 0.33333334}
        outWeight: {x: 0.33333334, y: 0.33333334, z: 0.33333334}
      - serializedVersion: 3
        time: 0.33333334
        value: {x: -0.14, y: 0.67704535, z: 0.08718907}
        inSlope: {x: -0, y: -0.118314035, z: 0.31610507}
        outSlope: {x: -0, y: -0.14450313, z: 0.27909997}
        tangentMode: 0
        weightedMode: 0
        inWeight: {x: 0.33333334, y: 0.33333334, z: 0.33333334}
        outWeight: {x: 0.33333334, y: 0.33333334, z: 0.33333334}
      - serializedVersion: 3
        time: 0.4
        value: {x: -0.14, y: 0.6664513, z: 0.1041156}
        inSlope: {x: -0, y: -0.173319, z: 0.22869588}
        outSlope: {x: -0, y: -0.64522153, z: 0.16684303}
        tangentMode: 0
        weightedMode: 0
        inWeight: {x: 0.33333334, y: 0.33333334, z: 0.33333334}
        outWeight: {x: 0.33333334, y: 0.33333334, z: 0.33333334}
      - serializedVersion: 3
        time: 0.43333334
        value: {x: -0.14, y: 0.6449439, z: 0.10967703}
        inSlope: {x: -0, y: -0.64522153, z: 0.16684303}
        outSlope: {x: -0, y: -1.2479444, z: 0.101347275}
        tangentMode: 0
        weightedMode: 0
        inWeight: {x: 0.33333334, y: 0.33333334, z: 0.33333334}
        outWeight: {x: 0.33333334, y: 0.33333334, z: 0.33333334}
      - serializedVersion: 3
        time: 0.5
        value: {x: -0.14, y: 0.55718327, z: 0.11419393}
        inSlope: {x: -0, y: -1.3848747, z: 0.034159724}
        outSlope: {x: -0, y: -1.1340191, z: -0.45299074}
        tangentMode: 0
        weightedMode: 0
        inWeight: {x: 0.33333334, y: 0.33333334, z: 0.33333334}
        outWeight: {x: 0.33333334, y: 0.33333334, z: 0.33333334}
      - serializedVersion: 3
        time: 0.53333336
        value: {x: -0.14, y: 0.5193826, z: 0.09909423}
        inSlope: {x: -0, y: -1.1340191, z: -0.45299074}
        outSlope: {x: -0, y: -0.8073296, z: -1.0061022}
        tangentMode: 0
        weightedMode: 0
        inWeight: {x: 0.33333334, y: 0.33333334, z: 0.33333334}
        outWeight: {x: 0.33333334, y: 0.33333334, z: 0.33333334}
      - serializedVersion: 3
        time: 0.56666666
        value: {x: -0.14, y: 0.49247164, z: 0.06555752}
        inSlope: {x: -0, y: -0.8073296, z: -1.0061022}
        outSlope: {x: -0, y: -0.48281062, z: -1.0298965}
        tangentMode: 0
        weightedMode: 0
        inWeight: {x: 0.33333334, y: 0.33333334, z: 0.33333334}
        outWeight: {x: 0.33333334, y: 0.33333334, z: 0.33333334}
      - serializedVersion: 3
        time: 0.6
        value: {x: -0.14, y: 0.47637793, z: 0.031227604}
        inSlope: {x: -0, y: -0.48281062, z: -1.0298965}
        outSlope: {x: -0, y: -0.16045347, z: -0.52437794}
        tangentMode: 0
        weightedMode: 0
        inWeight: {x: 0.33333334, y: 0.33333334, z: 0.33333334}
        outWeight: {x: 0.33333334, y: 0.33333334, z: 0.33333334}
      - serializedVersion: 3
        time: 0.6333333
        value: {x: -0.14, y: 0.4710295, z: 0.013748355}
        inSlope: {x: -0, y: -0.16045347, z: -0.52437794}
        outSlope: {x: -0, y: 0.11143497, z: -0.08804634}
        tangentMode: 0
        weightedMode: 0
        inWeight: {x: 0.33333334, y: 0.33333334, z: 0.33333334}
        outWeight: {x: 0.33333334, y: 0.33333334, z: 0.33333334}
      - serializedVersion: 3
        time: 0.6666667
        value: {x: -0.14, y: 0.474744, z: 0.010813475}
        inSlope: {x: -0, y: 0.11143497, z: -0.08804634}
        outSlope: {x: -0, y: 0.3102228, z: -0.07453017}
        tangentMode: 0
        weightedMode: 0
        inWeight: {x: 0.33333334, y: 0.33333334, z: 0.33333334}
        outWeight: {x: 0.33333334, y: 0.33333334, z: 0.33333334}
      - serializedVersion: 3
        time: 0.7
        value: {x: -0.14, y: 0.48508474, z: 0.008329138}
        inSlope: {x: -0, y: 0.3102228, z: -0.07453017}
        outSlope: {x: -0, y: 0.47286144, z: -0.06214025}
        tangentMode: 0
        weightedMode: 0
        inWeight: {x: 0.33333334, y: 0.33333334, z: 0.33333334}
        outWeight: {x: 0.33333334, y: 0.33333334, z: 0.33333334}
      - serializedVersion: 3
        time: 0.73333335
        value: {x: -0.14, y: 0.5008468, z: 0.006257795}
        inSlope: {x: -0, y: 0.47286144, z: -0.06214025}
        outSlope: {x: -0, y: 0.59935987, z: -0.05087552}
        tangentMode: 0
        weightedMode: 0
        inWeight: {x: 0.33333334, y: 0.33333334, z: 0.33333334}
        outWeight: {x: 0.33333334, y: 0.33333334, z: 0.33333334}
      - serializedVersion: 3
        time: 0.76666665
        value: {x: -0.14, y: 0.52082545, z: 0.004561946}
        inSlope: {x: -0, y: 0.59935987, z: -0.05087552}
        outSlope: {x: -0, y: 0.68971694, z: -0.040738028}
        tangentMode: 0
        weightedMode: 0
        inWeight: {x: 0.33333334, y: 0.33333334, z: 0.33333334}
        outWeight: {x: 0.33333334, y: 0.33333334, z: 0.33333334}
      - serializedVersion: 3
        time: 0.8
        value: {x: -0.14, y: 0.54381603, z: 0.0032040104}
        inSlope: {x: -0, y: 0.68971694, z: -0.040738028}
        outSlope: {x: -0, y: 0.74393106, z: -0.03172788}
        tangentMode: 0
        weightedMode: 0
        inWeight: {x: 0.33333334, y: 0.33333334, z: 0.33333334}
        outWeight: {x: 0.33333334, y: 0.33333334, z: 0.33333334}
      - serializedVersion: 3
        time: 0.8333333
        value: {x: -0.14, y: 0.5686137, z: 0.0021464154}
        inSlope: {x: -0, y: 0.74393106, z: -0.03172788}
        outSlope: {x: -0, y: 0.7620006, z: -0.023841912}
        tangentMode: 0
        weightedMode: 0
        inWeight: {x: 0.33333334, y: 0.33333334, z: 0.33333334}
        outWeight: {x: 0.33333334, y: 0.33333334, z: 0.33333334}
      - serializedVersion: 3
        time: 0.8666667
        value: {x: -0.14, y: 0.59401375, z: 0.0013516843}
        inSlope: {x: -0, y: 0.7620006, z: -0.023841912}
        outSlope: {x: -0, y: 0.74392927, z: -0.0170839}
        tangentMode: 0
        weightedMode: 0
        inWeight: {x: 0.33333334, y: 0.33333334, z: 0.33333334}
        outWeight: {x: 0.33333334, y: 0.33333334, z: 0.33333334}
      - serializedVersion: 3
        time: 0.9
        value: {x: -0.14, y: 0.61881137, z: 0.00078222156}
        inSlope: {x: -0, y: 0.74392927, z: -0.0170839}
        outSlope: {x: -0, y: 0.68971515, z: -0.011451738}
        tangentMode: 0
        weightedMode: 0
        inWeight: {x: 0.33333334, y: 0.33333334, z: 0.33333334}
        outWeight: {x: 0.33333334, y: 0.33333334, z: 0.33333334}
      - serializedVersion: 3
        time: 0.93333334
        value: {x: -0.14, y: 0.6418019, z: 0.00040049665}
        inSlope: {x: -0, y: 0.68971515, z: -0.011451738}
        outSlope: {x: -0, y: 0.59935987, z: -0.0069461456}
        tangentMode: 0
        weightedMode: 0
        inWeight: {x: 0.33333334, y: 0.33333334, z: 0.33333334}
        outWeight: {x: 0.33333334, y: 0.33333334, z: 0.33333334}
      - serializedVersion: 3
        time: 0.96666664
        value: {x: -0.14, y: 0.66178054, z: 0.00016895868}
        inSlope: {x: -0, y: 0.59935987, z: -0.0069461456}
        outSlope: {x: -0, y: 0.47286054, z: -0.003566888}
        tangentMode: 0
        weightedMode: 0
        inWeight: {x: 0.33333334, y: 0.33333334, z: 0.33333334}
        outWeight: {x: 0.33333334, y: 0.33333334, z: 0.33333334}
      - serializedVersion: 3
        time: 1
        value: {x: -0.14, y: 0.67754257, z: 0.000050062314}
        inSlope: {x: -0, y: 0.47286054, z: -0.003566888}
        outSlope: {x: -0, y: 0.31022102, z: -0.0007509346}
        tangentMode: 0
        weightedMode: 0
        inWeight: {x: 0.33333334, y: 0.33333334, z: 0.33333334}
        outWeight: {x: 0.33333334, y: 0.33333334, z: 0.33333334}
      - serializedVersion: 3
        time: 1.0666667
        value: {x: -0.14, y: 0.69159794, z: 0}
        inSlope: {x: -0, y: 0.11144013, z: -0.00075093354}
        outSlope: {x: -0, y: 0.11144013, z: -0.00075093354}
        tangentMode: 0
        weightedMode: 0
        inWeight: {x: 0.33333334, y: 0.33333334, z: 0.33333334}
        outWeight: {x: 0.33333334, y: 0.33333334, z: 0.33333334}
      m_PreInfinity: 2
      m_PostInfinity: 2
      m_RotationOrder: 4
    path: KayKit Animated Character/Body/armLeft
  - curve:
      serializedVersion: 2
      m_Curve:
      - serializedVersion: 3
        time: 0
        value: {x: 3.5527137e-15, y: 0.5509222, z: -0.000000014901163}
        inSlope: {x: 0, y: 0, z: 0}
        outSlope: {x: 0, y: 0, z: 0}
        tangentMode: 0
        weightedMode: 0
        inWeight: {x: 0.33333334, y: 0.33333334, z: 0.33333334}
        outWeight: {x: 0.33333334, y: 0.33333334, z: 0.33333334}
      - serializedVersion: 3
        time: 1.0666667
        value: {x: 3.5527137e-15, y: 0.5509222, z: -0.000000014901163}
        inSlope: {x: 0, y: 0, z: 0}
        outSlope: {x: 0, y: 0, z: 0}
        tangentMode: 0
        weightedMode: 0
        inWeight: {x: 0.33333334, y: 0.33333334, z: 0.33333334}
        outWeight: {x: 0.33333334, y: 0.33333334, z: 0.33333334}
      m_PreInfinity: 2
      m_PostInfinity: 2
      m_RotationOrder: 4
    path: KayKit Animated Character/Body/armLeft/handSlotLeft
  - curve:
      serializedVersion: 2
      m_Curve:
      - serializedVersion: 3
        time: 0
        value: {x: 0.14, y: 0.69159794, z: 0}
        inSlope: {x: -0, y: -0.027941464, z: 0.04102728}
        outSlope: {x: -0, y: -0.027941464, z: 0.04102728}
        tangentMode: 0
        weightedMode: 0
        inWeight: {x: 0.33333334, y: 0.33333334, z: 0.33333334}
        outWeight: {x: 0.33333334, y: 0.33333334, z: 0.33333334}
      - serializedVersion: 3
        time: 0.033333335
        value: {x: 0.14, y: 0.69066656, z: 0.0013675761}
        inSlope: {x: -0, y: -0.027941464, z: 0.04102728}
        outSlope: {x: -0, y: -0.027939675, z: 0.11605038}
        tangentMode: 0
        weightedMode: 0
        inWeight: {x: 0.33333334, y: 0.33333334, z: 0.33333334}
        outWeight: {x: 0.33333334, y: 0.33333334, z: 0.33333334}
      - serializedVersion: 3
        time: 0.06666667
        value: {x: 0.14, y: 0.68973523, z: 0.005235922}
        inSlope: {x: -0, y: -0.027939675, z: 0.11605038}
        outSlope: {x: -0, y: -0.061994795, z: 0.18052615}
        tangentMode: 0
        weightedMode: 0
        inWeight: {x: 0.33333334, y: 0.33333334, z: 0.33333334}
        outWeight: {x: 0.33333334, y: 0.33333334, z: 0.33333334}
      - serializedVersion: 3
        time: 0.1
        value: {x: 0.14, y: 0.68766874, z: 0.01125346}
        inSlope: {x: -0, y: -0.061994795, z: 0.18052615}
        outSlope: {x: -0, y: -0.07771073, z: 0.23445496}
        tangentMode: 0
        weightedMode: 0
        inWeight: {x: 0.33333334, y: 0.33333334, z: 0.33333334}
        outWeight: {x: 0.33333334, y: 0.33333334, z: 0.33333334}
      - serializedVersion: 3
        time: 0.13333334
        value: {x: 0.14, y: 0.6850784, z: 0.019068627}
        inSlope: {x: -0, y: -0.07771073, z: 0.23445496}
        outSlope: {x: -0, y: -0.08818746, z: 0.27783665}
        tangentMode: 0
        weightedMode: 0
        inWeight: {x: 0.33333334, y: 0.33333334, z: 0.33333334}
        outWeight: {x: 0.33333334, y: 0.33333334, z: 0.33333334}
      - serializedVersion: 3
        time: 0.16666667
        value: {x: 0.14, y: 0.6821388, z: 0.028329847}
        inSlope: {x: -0, y: -0.08818746, z: 0.27783665}
        outSlope: {x: -0, y: -0.09342492, z: 0.3106706}
        tangentMode: 0
        weightedMode: 0
        inWeight: {x: 0.33333334, y: 0.33333334, z: 0.33333334}
        outWeight: {x: 0.33333334, y: 0.33333334, z: 0.33333334}
      - serializedVersion: 3
        time: 0.23333333
        value: {x: 0.14, y: 0.67591035, z: 0.049784128}
        inSlope: {x: -0, y: -0.0934285, z: 0.33295783}
        outSlope: {x: -0, y: -0.08818563, z: 0.34469736}
        tangentMode: 0
        weightedMode: 0
        inWeight: {x: 0.33333334, y: 0.33333334, z: 0.33333334}
        outWeight: {x: 0.33333334, y: 0.33333334, z: 0.33333334}
      - serializedVersion: 3
        time: 0.4
        value: {x: 0.14, y: 0.66718626, z: 0.10411559}
        inSlope: {x: -0, y: 0.007206202, z: 0.28618613}
        outSlope: {x: -0, y: 0.007204414, z: 0.24159642}
        tangentMode: 0
        weightedMode: 0
        inWeight: {x: 0.33333334, y: 0.33333334, z: 0.33333334}
        outWeight: {x: 0.33333334, y: 0.33333334, z: 0.33333334}
      - serializedVersion: 3
        time: 0.43333334
        value: {x: 0.14, y: 0.6674264, z: 0.112168804}
        inSlope: {x: -0, y: 0.007204414, z: 0.24159642}
        outSlope: {x: -0, y: 0.007204414, z: 0.16849884}
        tangentMode: 0
        weightedMode: 0
        inWeight: {x: 0.33333334, y: 0.33333334, z: 0.33333334}
        outWeight: {x: 0.33333334, y: 0.33333334, z: 0.33333334}
      - serializedVersion: 3
        time: 0.46666667
        value: {x: 0.14, y: 0.66766655, z: 0.11778543}
        inSlope: {x: -0, y: 0.007204414, z: 0.16849884}
        outSlope: {x: -0, y: 0.007206202, z: 0.06330036}
        tangentMode: 0
        weightedMode: 0
        inWeight: {x: 0.33333334, y: 0.33333334, z: 0.33333334}
        outWeight: {x: 0.33333334, y: 0.33333334, z: 0.33333334}
      - serializedVersion: 3
        time: 0.5
        value: {x: 0.14, y: 0.66790676, z: 0.11989544}
        inSlope: {x: -0, y: 0.007206202, z: 0.06330036}
        outSlope: {x: -0, y: -0.45103094, z: -0.20151643}
        tangentMode: 0
        weightedMode: 0
        inWeight: {x: 0.33333334, y: 0.33333334, z: 0.33333334}
        outWeight: {x: 0.33333334, y: 0.33333334, z: 0.33333334}
      - serializedVersion: 3
        time: 0.53333336
        value: {x: 0.14, y: 0.6528724, z: 0.11317822}
        inSlope: {x: -0, y: -0.45103094, z: -0.20151643}
        outSlope: {x: -0, y: -0.9922681, z: -0.48503348}
        tangentMode: 0
        weightedMode: 0
        inWeight: {x: 0.33333334, y: 0.33333334, z: 0.33333334}
        outWeight: {x: 0.33333334, y: 0.33333334, z: 0.33333334}
      - serializedVersion: 3
        time: 0.56666666
        value: {x: 0.14, y: 0.6197968, z: 0.097010456}
        inSlope: {x: -0, y: -0.9922681, z: -0.48503348}
        outSlope: {x: -0, y: -0.9922663, z: -0.58927256}
        tangentMode: 0
        weightedMode: 0
        inWeight: {x: 0.33333334, y: 0.33333334, z: 0.33333334}
        outWeight: {x: 0.33333334, y: 0.33333334, z: 0.33333334}
      - serializedVersion: 3
        time: 0.6
        value: {x: 0.14, y: 0.58672124, z: 0.07736802}
        inSlope: {x: -0, y: -0.9922663, z: -0.58927256}
        outSlope: {x: -0, y: -0.45102817, z: -0.5142332}
        tangentMode: 0
        weightedMode: 0
        inWeight: {x: 0.33333334, y: 0.33333334, z: 0.33333334}
        outWeight: {x: 0.33333334, y: 0.33333334, z: 0.33333334}
      - serializedVersion: 3
        time: 0.6333333
        value: {x: 0.14, y: 0.571687, z: 0.060226932}
        inSlope: {x: -0, y: -0.45102817, z: -0.5142332}
        outSlope: {x: -0, y: 0.06058032, z: -0.385704}
        tangentMode: 0
        weightedMode: 0
        inWeight: {x: 0.33333334, y: 0.33333334, z: 0.33333334}
        outWeight: {x: 0.33333334, y: 0.33333334, z: 0.33333334}
      - serializedVersion: 3
        time: 0.6666667
        value: {x: 0.14, y: 0.5737063, z: 0.04737012}
        inSlope: {x: -0, y: 0.06058032, z: -0.385704}
        outSlope: {x: -0, y: 0.1686521, z: -0.3264922}
        tangentMode: 0
        weightedMode: 0
        inWeight: {x: 0.33333334, y: 0.33333334, z: 0.33333334}
        outWeight: {x: 0.33333334, y: 0.33333334, z: 0.33333334}
      - serializedVersion: 3
        time: 0.7
        value: {x: 0.14, y: 0.57932806, z: 0.036487058}
        inSlope: {x: -0, y: 0.1686521, z: -0.3264922}
        outSlope: {x: -0, y: 0.25706628, z: -0.27221337}
        tangentMode: 0
        weightedMode: 0
        inWeight: {x: 0.33333334, y: 0.33333334, z: 0.33333334}
        outWeight: {x: 0.33333334, y: 0.33333334, z: 0.33333334}
      - serializedVersion: 3
        time: 0.73333335
        value: {x: 0.14, y: 0.58789694, z: 0.027413271}
        inSlope: {x: -0, y: 0.25706628, z: -0.27221337}
        outSlope: {x: -0, y: 0.3258404, z: -0.2228701}
        tangentMode: 0
        weightedMode: 0
        inWeight: {x: 0.33333334, y: 0.33333334, z: 0.33333334}
        outWeight: {x: 0.33333334, y: 0.33333334, z: 0.33333334}
      - serializedVersion: 3
        time: 0.76666665
        value: {x: 0.14, y: 0.5987583, z: 0.019984275}
        inSlope: {x: -0, y: 0.3258404, z: -0.2228701}
        outSlope: {x: -0, y: 0.37496358, z: -0.17846018}
        tangentMode: 0
        weightedMode: 0
        inWeight: {x: 0.33333334, y: 0.33333334, z: 0.33333334}
        outWeight: {x: 0.33333334, y: 0.33333334, z: 0.33333334}
      - serializedVersion: 3
        time: 0.8
        value: {x: 0.14, y: 0.6112571, z: 0.014035597}
        inSlope: {x: -0, y: 0.37496358, z: -0.17846018}
        outSlope: {x: -0, y: 0.4044346, z: -0.13898583}
        tangentMode: 0
        weightedMode: 0
        inWeight: {x: 0.33333334, y: 0.33333334, z: 0.33333334}
        outWeight: {x: 0.33333334, y: 0.33333334, z: 0.33333334}
      - serializedVersion: 3
        time: 0.8333333
        value: {x: 0.14, y: 0.6247382, z: 0.009402741}
        inSlope: {x: -0, y: 0.4044346, z: -0.13898583}
        outSlope: {x: -0, y: 0.4142561, z: -0.10444379}
        tangentMode: 0
        weightedMode: 0
        inWeight: {x: 0.33333334, y: 0.33333334, z: 0.33333334}
        outWeight: {x: 0.33333334, y: 0.33333334, z: 0.33333334}
      - serializedVersion: 3
        time: 0.8666667
        value: {x: 0.14, y: 0.63854676, z: 0.005921278}
        inSlope: {x: -0, y: 0.4142561, z: -0.10444379}
        outSlope: {x: -0, y: 0.4044328, z: -0.07483851}
        tangentMode: 0
        weightedMode: 0
        inWeight: {x: 0.33333334, y: 0.33333334, z: 0.33333334}
        outWeight: {x: 0.33333334, y: 0.33333334, z: 0.33333334}
      - serializedVersion: 3
        time: 0.9
        value: {x: 0.14, y: 0.65202785, z: 0.0034266636}
        inSlope: {x: -0, y: 0.4044328, z: -0.07483851}
        outSlope: {x: -0, y: 0.37496358, z: -0.050166152}
        tangentMode: 0
        weightedMode: 0
        inWeight: {x: 0.33333334, y: 0.33333334, z: 0.33333334}
        outWeight: {x: 0.33333334, y: 0.33333334, z: 0.33333334}
      - serializedVersion: 3
        time: 0.93333334
        value: {x: 0.14, y: 0.66452664, z: 0.0017544571}
        inSlope: {x: -0, y: 0.37496358, z: -0.050166152}
        outSlope: {x: -0, y: 0.32583505, z: -0.030429076}
        tangentMode: 0
        weightedMode: 0
        inWeight: {x: 0.33333334, y: 0.33333334, z: 0.33333334}
        outWeight: {x: 0.33333334, y: 0.33333334, z: 0.33333334}
      - serializedVersion: 3
        time: 0.96666664
        value: {x: 0.14, y: 0.6753878, z: 0.0007401556}
        inSlope: {x: -0, y: 0.32583505, z: -0.030429076}
        outSlope: {x: -0, y: 0.25706986, z: -0.015625503}
        tangentMode: 0
        weightedMode: 0
        inWeight: {x: 0.33333334, y: 0.33333334, z: 0.33333334}
        outWeight: {x: 0.33333334, y: 0.33333334, z: 0.33333334}
      - serializedVersion: 3
        time: 1
        value: {x: 0.14, y: 0.6839568, z: 0.00021930505}
        inSlope: {x: -0, y: 0.25706986, z: -0.015625503}
        outSlope: {x: -0, y: 0.16865031, z: -0.0057564974}
        tangentMode: 0
        weightedMode: 0
        inWeight: {x: 0.33333334, y: 0.33333334, z: 0.33333334}
        outWeight: {x: 0.33333334, y: 0.33333334, z: 0.33333334}
      - serializedVersion: 3
        time: 1.0333333
        value: {x: 0.14, y: 0.6895785, z: 0.000027421978}
        inSlope: {x: -0, y: 0.16865031, z: -0.0057564974}
        outSlope: {x: -0, y: 0.06058379, z: -0.0008226572}
        tangentMode: 0
        weightedMode: 0
        inWeight: {x: 0.33333334, y: 0.33333334, z: 0.33333334}
        outWeight: {x: 0.33333334, y: 0.33333334, z: 0.33333334}
      - serializedVersion: 3
        time: 1.0666667
        value: {x: 0.14, y: 0.69159794, z: 0}
        inSlope: {x: -0, y: 0.06058379, z: -0.0008226572}
        outSlope: {x: -0, y: 0.06058379, z: -0.0008226572}
        tangentMode: 0
        weightedMode: 0
        inWeight: {x: 0.33333334, y: 0.33333334, z: 0.33333334}
        outWeight: {x: 0.33333334, y: 0.33333334, z: 0.33333334}
      m_PreInfinity: 2
      m_PostInfinity: 2
      m_RotationOrder: 4
    path: KayKit Animated Character/Body/armRight
  - curve:
      serializedVersion: 2
      m_Curve:
      - serializedVersion: 3
        time: 0
        value: {x: 3.5527137e-15, y: 0.5509222, z: 0.000000014901172}
        inSlope: {x: -0.00000007217751, y: -0, z: -0.00000010244551}
        outSlope: {x: -0.00000007217751, y: -0, z: -0.00000010244551}
        tangentMode: 0
        weightedMode: 0
        inWeight: {x: 0.33333334, y: 0.33333334, z: 0.33333334}
        outWeight: {x: 0.33333334, y: 0.33333334, z: 0.33333334}
      - serializedVersion: 3
        time: 0.4
        value: {x: -0.000000028871, y: 0.5509223, z: -0.000000026077032}
        inSlope: {x: -0.00000007217752, y: -0, z: -0.00000010244547}
        outSlope: {x: 0.005011666, y: 0.064237125, z: -0.4331784}
        tangentMode: 0
        weightedMode: 0
        inWeight: {x: 0.33333334, y: 0.33333334, z: 0.33333334}
        outWeight: {x: 0.33333334, y: 0.33333334, z: 0.33333334}
      - serializedVersion: 3
        time: 0.43333334
        value: {x: 0.00016702665, y: 0.5530635, z: -0.014439305}
        inSlope: {x: 0.005011666, y: 0.064237125, z: -0.4331784}
        outSlope: {x: 0.0093039125, y: 0.11928678, z: -0.8044746}
        tangentMode: 0
        weightedMode: 0
        inWeight: {x: 0.33333334, y: 0.33333334, z: 0.33333334}
        outWeight: {x: 0.33333334, y: 0.33333334, z: 0.33333334}
      - serializedVersion: 3
        time: 0.46666667
        value: {x: 0.00047715704, y: 0.55703974, z: -0.041255124}
        inSlope: {x: 0.0093039125, y: 0.11928678, z: -0.8044746}
        outSlope: {x: 0.005008007, y: 0.06423355, z: -0.43317902}
        tangentMode: 0
        weightedMode: 0
        inWeight: {x: 0.33333334, y: 0.33333334, z: 0.33333334}
        outWeight: {x: 0.33333334, y: 0.33333334, z: 0.33333334}
      - serializedVersion: 3
        time: 0.5
        value: {x: 0.0006440906, y: 0.55918086, z: -0.055694424}
        inSlope: {x: 0.005008007, y: 0.06423355, z: -0.43317902}
        outSlope: {x: -0.00054537156, y: -0.006991619, z: -0}
        tangentMode: 0
        weightedMode: 0
        inWeight: {x: 0.33333334, y: 0.33333334, z: 0.33333334}
        outWeight: {x: 0.33333334, y: 0.33333334, z: 0.33333334}
      - serializedVersion: 3
        time: 0.6666667
        value: {x: 0.00055319525, y: 0.5580156, z: -0.054756466}
        inSlope: {x: -0.00054537156, y: -0.006991619, z: 0.028138695}
        outSlope: {x: -0.00054537255, y: -0.0069916314, z: 0.07833153}
        tangentMode: 0
        weightedMode: 0
        inWeight: {x: 0.33333334, y: 0.33333334, z: 0.33333334}
        outWeight: {x: 0.33333334, y: 0.33333334, z: 0.33333334}
      - serializedVersion: 3
        time: 0.7
        value: {x: 0.0005350162, y: 0.55778253, z: -0.052145418}
        inSlope: {x: -0.00054537255, y: -0.0069916314, z: 0.07833153}
        outSlope: {x: -0.00054537156, y: -0.006991619, z: 0.119400114}
        tangentMode: 0
        weightedMode: 0
        inWeight: {x: 0.33333334, y: 0.33333334, z: 0.33333334}
        outWeight: {x: 0.33333334, y: 0.33333334, z: 0.33333334}
      - serializedVersion: 3
        time: 0.73333335
        value: {x: 0.0005168371, y: 0.5575495, z: -0.04816541}
        inSlope: {x: -0.00054537156, y: -0.006991619, z: 0.119400114}
        outSlope: {x: -0.00054537255, y: -0.0069916314, z: 0.15134054}
        tangentMode: 0
        weightedMode: 0
        inWeight: {x: 0.33333334, y: 0.33333334, z: 0.33333334}
        outWeight: {x: 0.33333334, y: 0.33333334, z: 0.33333334}
      - serializedVersion: 3
        time: 0.76666665
        value: {x: 0.00049865805, y: 0.5573164, z: -0.04312073}
        inSlope: {x: -0.00054537255, y: -0.0069916314, z: 0.15134054}
        outSlope: {x: -0.0020929324, y: -0.026841737, z: 0.17415568}
        tangentMode: 0
        weightedMode: 0
        inWeight: {x: 0.33333334, y: 0.33333334, z: 0.33333334}
        outWeight: {x: 0.33333334, y: 0.33333334, z: 0.33333334}
      - serializedVersion: 3
        time: 0.9
        value: {x: 0.00021255016, y: 0.55364764, z: -0.01837889}
        inSlope: {x: -0.0021986861, y: -0.028190043, z: 0.18784635}
        outSlope: {x: -0.0018822806, y: -0.024132708, z: 0.17415465}
        tangentMode: 0
        weightedMode: 0
        inWeight: {x: 0.33333334, y: 0.33333334, z: 0.33333334}
        outWeight: {x: 0.33333334, y: 0.33333334, z: 0.33333334}
      - serializedVersion: 3
        time: 0.93333334
        value: {x: 0.00014980743, y: 0.5528432, z: -0.012573729}
        inSlope: {x: -0.0018822806, y: -0.024132708, z: 0.17415465}
        outSlope: {x: -0.0018822838, y: -0.024134539, z: 0.15134181}
        tangentMode: 0
        weightedMode: 0
        inWeight: {x: 0.33333334, y: 0.33333334, z: 0.33333334}
        outWeight: {x: 0.33333334, y: 0.33333334, z: 0.33333334}
      - serializedVersion: 3
        time: 0.96666664
        value: {x: 0.00008706469, y: 0.5520387, z: -0.007529007}
        inSlope: {x: -0.0018822838, y: -0.024134539, z: 0.15134181}
        outSlope: {x: -0.0008706462, y: -0.011165133, z: 0.11940053}
        tangentMode: 0
        weightedMode: 0
        inWeight: {x: 0.33333334, y: 0.33333334, z: 0.33333334}
        outWeight: {x: 0.33333334, y: 0.33333334, z: 0.33333334}
      - serializedVersion: 3
        time: 1
        value: {x: 0.000058043126, y: 0.55166656, z: -0.0035489856}
        inSlope: {x: -0.0008706462, y: -0.011165133, z: 0.11940053}
        outSlope: {x: -0.0008706468, y: -0.011165152, z: 0.078331806}
        tangentMode: 0
        weightedMode: 0
        inWeight: {x: 0.33333334, y: 0.33333334, z: 0.33333334}
        outWeight: {x: 0.33333334, y: 0.33333334, z: 0.33333334}
      - serializedVersion: 3
        time: 1.0333333
        value: {x: 0.000029021594, y: 0.5512944, z: -0.00093792804}
        inSlope: {x: -0.0008706468, y: -0.011165152, z: 0.078331806}
        outSlope: {x: -0.0008706455, y: -0.011165113, z: 0.028138215}
        tangentMode: 0
        weightedMode: 0
        inWeight: {x: 0.33333334, y: 0.33333334, z: 0.33333334}
        outWeight: {x: 0.33333334, y: 0.33333334, z: 0.33333334}
      - serializedVersion: 3
        time: 1.0666667
        value: {x: 3.5527137e-15, y: 0.5509222, z: 0.000000014901172}
        inSlope: {x: -0.0008706455, y: -0.011165113, z: 0.028138215}
        outSlope: {x: -0.0008706455, y: -0.011165113, z: 0.028138215}
        tangentMode: 0
        weightedMode: 0
        inWeight: {x: 0.33333334, y: 0.33333334, z: 0.33333334}
        outWeight: {x: 0.33333334, y: 0.33333334, z: 0.33333334}
      m_PreInfinity: 2
      m_PostInfinity: 2
      m_RotationOrder: 4
    path: KayKit Animated Character/Body/armRight/handSlotRight
  m_ScaleCurves:
  - curve:
      serializedVersion: 2
      m_Curve:
      - serializedVersion: 3
        time: 0
        value: {x: 1, y: 1, z: 1}
        inSlope: {x: 0, y: 0, z: 0}
        outSlope: {x: 0, y: 0, z: 0}
        tangentMode: 0
        weightedMode: 0
        inWeight: {x: 0.33333334, y: 0.33333334, z: 0.33333334}
        outWeight: {x: 0.33333334, y: 0.33333334, z: 0.33333334}
      - serializedVersion: 3
        time: 1.0666667
        value: {x: 1, y: 1, z: 1}
        inSlope: {x: 0, y: 0, z: 0}
        outSlope: {x: 0, y: 0, z: 0}
        tangentMode: 0
        weightedMode: 0
        inWeight: {x: 0.33333334, y: 0.33333334, z: 0.33333334}
        outWeight: {x: 0.33333334, y: 0.33333334, z: 0.33333334}
      m_PreInfinity: 2
      m_PostInfinity: 2
      m_RotationOrder: 4
    path: KayKit Animated Character
  - curve:
      serializedVersion: 2
      m_Curve:
      - serializedVersion: 3
        time: 0
        value: {x: 1, y: 1, z: 1}
        inSlope: {x: 0, y: 0, z: 0}
        outSlope: {x: 0, y: 0, z: 0}
        tangentMode: 0
        weightedMode: 0
        inWeight: {x: 0.33333334, y: 0.33333334, z: 0.33333334}
        outWeight: {x: 0.33333334, y: 0.33333334, z: 0.33333334}
      - serializedVersion: 3
        time: 1.0666667
        value: {x: 1, y: 1, z: 1}
        inSlope: {x: 0, y: 0, z: 0}
        outSlope: {x: 0, y: 0, z: 0}
        tangentMode: 0
        weightedMode: 0
        inWeight: {x: 0.33333334, y: 0.33333334, z: 0.33333334}
        outWeight: {x: 0.33333334, y: 0.33333334, z: 0.33333334}
      m_PreInfinity: 2
      m_PostInfinity: 2
      m_RotationOrder: 4
    path: KayKit Animated Character/Body
  - curve:
      serializedVersion: 2
      m_Curve:
      - serializedVersion: 3
        time: 0
        value: {x: 1, y: 0.99999994, z: 1}
        inSlope: {x: 0, y: 0, z: 0}
        outSlope: {x: 0, y: 0, z: 0}
        tangentMode: 0
        weightedMode: 0
        inWeight: {x: 0.33333334, y: 0.33333334, z: 0.33333334}
        outWeight: {x: 0.33333334, y: 0.33333334, z: 0.33333334}
      - serializedVersion: 3
        time: 0.23333335
        value: {x: 0.99999994, y: 0.99999994, z: 0.9999999}
        inSlope: {x: -0.13399155, y: -0.13399334, z: -0.13399066}
        outSlope: {x: -0.13399155, y: -0.13399334, z: -0.13399066}
        tangentMode: 0
        weightedMode: 0
        inWeight: {x: 0.33333334, y: 0.33333334, z: 0.33333334}
        outWeight: {x: 0.33333334, y: 0.33333334, z: 0.33333334}
      - serializedVersion: 3
        time: 0.36666667
        value: {x: 0.92303973, y: 0.92303973, z: 0.92303985}
        inSlope: {x: -0.45351496, y: -0.45351496, z: -0.45351407}
        outSlope: {x: -0.45351496, y: -0.45351496, z: -0.45351407}
        tangentMode: 0
        weightedMode: 0
        inWeight: {x: 0.33333334, y: 0.33333334, z: 0.33333334}
        outWeight: {x: 0.33333334, y: 0.33333334, z: 0.33333334}
      - serializedVersion: 3
        time: 0.43333337
        value: {x: 0.9363755, y: 0.93637556, z: 0.93637574}
        inSlope: {x: 0.9543694, y: 0.9543694, z: 0.9543667}
        outSlope: {x: 0.9543694, y: 0.9543694, z: 0.9543667}
        tangentMode: 0
        weightedMode: 0
        inWeight: {x: 0.33333334, y: 0.33333334, z: 0.33333334}
        outWeight: {x: 0.33333334, y: 0.33333334, z: 0.33333334}
      - serializedVersion: 3
        time: 0.5
        value: {x: 1, y: 1, z: 1}
        inSlope: {x: 0.33402833, y: 0.33402923, z: 0.33402923}
        outSlope: {x: 0.33402833, y: 0.33402923, z: 0.33402923}
        tangentMode: 0
        weightedMode: 0
        inWeight: {x: 0.33333334, y: 0.33333334, z: 0.33333334}
        outWeight: {x: 0.33333334, y: 0.33333334, z: 0.33333334}
      - serializedVersion: 3
        time: 0.6
        value: {x: 1, y: 1, z: 1}
        inSlope: {x: 0, y: 0, z: 0}
        outSlope: {x: 0, y: 0, z: 0}
        tangentMode: 0
        weightedMode: 0
        inWeight: {x: 0.33333334, y: 0.33333334, z: 0.33333334}
        outWeight: {x: 0.33333334, y: 0.33333334, z: 0.33333334}
      - serializedVersion: 3
        time: 1.0666667
        value: {x: 1, y: 0.99999994, z: 1}
        inSlope: {x: 0, y: 0, z: 0}
        outSlope: {x: 0, y: 0, z: 0}
        tangentMode: 0
        weightedMode: 0
        inWeight: {x: 0.33333334, y: 0.33333334, z: 0.33333334}
        outWeight: {x: 0.33333334, y: 0.33333334, z: 0.33333334}
      m_PreInfinity: 2
      m_PostInfinity: 2
      m_RotationOrder: 4
    path: KayKit Animated Character/Body/Head
  - curve:
      serializedVersion: 2
      m_Curve:
      - serializedVersion: 3
        time: 0
        value: {x: 1.000001, y: 1.0000001, z: 1}
        inSlope: {x: 0, y: 0, z: 0}
        outSlope: {x: 0, y: 0, z: 0}
        tangentMode: 0
        weightedMode: 0
        inWeight: {x: 0.33333334, y: 0.33333334, z: 0.33333334}
        outWeight: {x: 0.33333334, y: 0.33333334, z: 0.33333334}
      - serializedVersion: 3
        time: 1.0666667
        value: {x: 1.000001, y: 1.0000001, z: 1}
        inSlope: {x: 0, y: 0, z: 0}
        outSlope: {x: 0, y: 0, z: 0}
        tangentMode: 0
        weightedMode: 0
        inWeight: {x: 0.33333334, y: 0.33333334, z: 0.33333334}
        outWeight: {x: 0.33333334, y: 0.33333334, z: 0.33333334}
      m_PreInfinity: 2
      m_PostInfinity: 2
      m_RotationOrder: 4
    path: KayKit Animated Character/Body/armLeft
  - curve:
      serializedVersion: 2
      m_Curve:
      - serializedVersion: 3
        time: 0
        value: {x: 0.99999976, y: 0.9999999, z: 0.9999999}
        inSlope: {x: 0, y: 0, z: 0}
        outSlope: {x: 0, y: 0, z: 0}
        tangentMode: 0
        weightedMode: 0
        inWeight: {x: 0.33333334, y: 0.33333334, z: 0.33333334}
        outWeight: {x: 0.33333334, y: 0.33333334, z: 0.33333334}
      - serializedVersion: 3
        time: 1.0666667
        value: {x: 0.99999976, y: 0.9999999, z: 0.9999999}
        inSlope: {x: 0, y: 0, z: 0}
        outSlope: {x: 0, y: 0, z: 0}
        tangentMode: 0
        weightedMode: 0
        inWeight: {x: 0.33333334, y: 0.33333334, z: 0.33333334}
        outWeight: {x: 0.33333334, y: 0.33333334, z: 0.33333334}
      m_PreInfinity: 2
      m_PostInfinity: 2
      m_RotationOrder: 4
    path: KayKit Animated Character/Body/armLeft/handSlotLeft
  - curve:
      serializedVersion: 2
      m_Curve:
      - serializedVersion: 3
        time: 0
        value: {x: 1.000001, y: 1.0000001, z: 1}
        inSlope: {x: 0, y: 0, z: 0}
        outSlope: {x: 0, y: 0, z: 0}
        tangentMode: 0
        weightedMode: 0
        inWeight: {x: 0.33333334, y: 0.33333334, z: 0.33333334}
        outWeight: {x: 0.33333334, y: 0.33333334, z: 0.33333334}
      - serializedVersion: 3
        time: 1.0666667
        value: {x: 1.000001, y: 1.0000001, z: 1}
        inSlope: {x: 0, y: 0, z: 0}
        outSlope: {x: 0, y: 0, z: 0}
        tangentMode: 0
        weightedMode: 0
        inWeight: {x: 0.33333334, y: 0.33333334, z: 0.33333334}
        outWeight: {x: 0.33333334, y: 0.33333334, z: 0.33333334}
      m_PreInfinity: 2
      m_PostInfinity: 2
      m_RotationOrder: 4
    path: KayKit Animated Character/Body/armRight
  - curve:
      serializedVersion: 2
      m_Curve:
      - serializedVersion: 3
        time: 0
        value: {x: 0.99999994, y: 1, z: 0.99999994}
        inSlope: {x: 0, y: 0, z: 0}
        outSlope: {x: 0, y: 0, z: 0}
        tangentMode: 0
        weightedMode: 0
        inWeight: {x: 0.33333334, y: 0.33333334, z: 0.33333334}
        outWeight: {x: 0.33333334, y: 0.33333334, z: 0.33333334}
      - serializedVersion: 3
        time: 0.36666667
        value: {x: 0.99999994, y: 0.99999994, z: 1}
        inSlope: {x: 0, y: 0, z: 0.0000017881379}
        outSlope: {x: 0, y: 0, z: 0.0000017881379}
        tangentMode: 0
        weightedMode: 0
        inWeight: {x: 0.33333334, y: 0.33333334, z: 0.33333334}
        outWeight: {x: 0.33333334, y: 0.33333334, z: 0.33333334}
      - serializedVersion: 3
        time: 0.40000004
        value: {x: 0.99999994, y: 0.99999994, z: 1.0000001}
        inSlope: {x: 0, y: 0.07965178, z: 2.0820756}
        outSlope: {x: 0, y: 0.07965178, z: 2.0820756}
        tangentMode: 0
        weightedMode: 0
        inWeight: {x: 0.33333334, y: 0.33333334, z: 0.33333334}
        outWeight: {x: 0.33333334, y: 0.33333334, z: 0.33333334}
      - serializedVersion: 3
        time: 0.43333337
        value: {x: 0.99999994, y: 1.00531, z: 1.138805}
        inSlope: {x: 0, y: 0.22757205, z: 5.948768}
        outSlope: {x: 0, y: 0.22757205, z: 5.948768}
        tangentMode: 0
        weightedMode: 0
        inWeight: {x: 0.33333334, y: 0.33333334, z: 0.33333334}
        outWeight: {x: 0.33333334, y: 0.33333334, z: 0.33333334}
      - serializedVersion: 3
        time: 0.4666667
        value: {x: 0.99999994, y: 1.0151714, z: 1.3965846}
        inSlope: {x: 0, y: 0.227573, z: 5.9487696}
        outSlope: {x: 0, y: 0.227573, z: 5.9487696}
        tangentMode: 0
        weightedMode: 0
        inWeight: {x: 0.33333334, y: 0.33333334, z: 0.33333334}
        outWeight: {x: 0.33333334, y: 0.33333334, z: 0.33333334}
      - serializedVersion: 3
        time: 0.5
        value: {x: 0.99999994, y: 1.0204816, z: 1.5353895}
        inSlope: {x: 0, y: 0.031648394, z: 0.82725346}
        outSlope: {x: 0, y: 0.031648394, z: 0.82725346}
        tangentMode: 0
        weightedMode: 0
        inWeight: {x: 0.33333334, y: 0.33333334, z: 0.33333334}
        outWeight: {x: 0.33333334, y: 0.33333334, z: 0.33333334}
      - serializedVersion: 3
        time: 0.5666667
        value: {x: 0.99999994, y: 1.0102407, z: 1.2676944}
        inSlope: {x: 0, y: -0.21121682, z: -5.521202}
        outSlope: {x: 0, y: -0.21121682, z: -5.521202}
        tangentMode: 0
        weightedMode: 0
        inWeight: {x: 0.33333334, y: 0.33333334, z: 0.33333334}
        outWeight: {x: 0.33333334, y: 0.33333334, z: 0.33333334}
      - serializedVersion: 3
        time: 0.6
        value: {x: 0.99999994, y: 1.0032002, z: 1.0836545}
        inSlope: {x: 0, y: -0.15361196, z: -4.015418}
        outSlope: {x: 0, y: -0.15361196, z: -4.015418}
        tangentMode: 0
        weightedMode: 0
        inWeight: {x: 0.33333334, y: 0.33333334, z: 0.33333334}
        outWeight: {x: 0.33333334, y: 0.33333334, z: 0.33333334}
      - serializedVersion: 3
        time: 0.6333334
        value: {x: 0.99999994, y: 0.9999999, z: 0.99999994}
        inSlope: {x: 0, y: -0.048004348, z: -1.2548177}
        outSlope: {x: 0, y: -0.048004348, z: -1.2548177}
        tangentMode: 0
        weightedMode: 0
        inWeight: {x: 0.33333334, y: 0.33333334, z: 0.33333334}
        outWeight: {x: 0.33333334, y: 0.33333334, z: 0.33333334}
      - serializedVersion: 3
        time: 0.6666667
        value: {x: 0.99999994, y: 0.9999999, z: 0.99999994}
        inSlope: {x: 0, y: 0, z: 0}
        outSlope: {x: 0, y: 0, z: 0}
        tangentMode: 0
        weightedMode: 0
        inWeight: {x: 0.33333334, y: 0.33333334, z: 0.33333334}
        outWeight: {x: 0.33333334, y: 0.33333334, z: 0.33333334}
      - serializedVersion: 3
        time: 1.0666667
        value: {x: 0.99999994, y: 1, z: 0.99999994}
        inSlope: {x: 0, y: 0, z: 0}
        outSlope: {x: 0, y: 0, z: 0}
        tangentMode: 0
        weightedMode: 0
        inWeight: {x: 0.33333334, y: 0.33333334, z: 0.33333334}
        outWeight: {x: 0.33333334, y: 0.33333334, z: 0.33333334}
      m_PreInfinity: 2
      m_PostInfinity: 2
      m_RotationOrder: 4
    path: KayKit Animated Character/Body/armRight/handSlotRight
  m_FloatCurves: []
  m_PPtrCurves: []
  m_SampleRate: 30
  m_WrapMode: 0
  m_Bounds:
    m_Center: {x: 0, y: 0, z: 0}
    m_Extent: {x: 0, y: 0, z: 0}
  m_ClipBindingConstant:
    genericBindings: []
    pptrCurveMapping: []
  m_AnimationClipSettings:
    serializedVersion: 2
    m_AdditiveReferencePoseClip: {fileID: 0}
    m_AdditiveReferencePoseTime: 0
    m_StartTime: 0
    m_StopTime: 1.0666667
    m_OrientationOffsetY: 0
    m_Level: 0
    m_CycleOffset: 0
    m_HasAdditiveReferencePose: 0
    m_LoopTime: 0
    m_LoopBlend: 0
    m_LoopBlendOrientation: 0
    m_LoopBlendPositionY: 0
    m_LoopBlendPositionXZ: 0
    m_KeepOriginalOrientation: 0
    m_KeepOriginalPositionY: 1
    m_KeepOriginalPositionXZ: 0
    m_HeightFromFeet: 0
    m_Mirror: 0
  m_EditorCurves: []
  m_EulerEditorCurves: []
  m_HasGenericRootTransform: 0
  m_HasMotionFloatCurves: 0
  m_Events: []
